x ratio,y ratio,intensity,time
0.004100435556644432,-0.028803503209720367,1,1103559
-0.0,-0.04456246176640873,2,1103583
-0.0034419503335910004,-0.03614410835993713,1,1103606
-0.003633494443746569,-0.012212194026869499,0,1103629
0.023713759918818078,-0.01580748143473672,1,1103887
0.022754076865597477,-0.037904877015009004,2,1103958
0.020452063090663015,-0.030508854699343935,1,1104028
0.011705852487646683,-0.011007683504115238,0,1104075
0.0,-0.02123429246340074,1,1105106
0.0,-0.015774353537680454,0,1105223
-0.004190138997087371,-0.02070625482153325,1,1106489
-0.01705667260849749,-0.033294978860397444,0,1106583
-0.002684673576684819,-0.03310665811242968,1,1114575
-0.0052063516012593155,-0.016184962624223517,0,1114622
-0.001231122610535508,-0.024787378843171053,1,1114645
-0.0,-0.04209863497740969,2,1114692
-0.0,-0.024811835958189005,1,1114762
-0.0014175714641487865,-0.006286015344366038,0,1114786
-0.0024293653075504974,-0.030463123497908765,1,1115887
-0.0014143948825799564,-0.024197443107465084,0,1115910
-0.004597059480834449,-0.028653034503542354,1,1125684
-0.0018261719411709172,-0.019480354713742935,0,1125731
0.0011180557309186934,-0.023798084001155722,1,1129387
0.005933875516745048,-0.04478041469596484,2,1129411
0.001333852726631366,-0.029987819115638897,1,1129434
-0.0,-0.016350949553531866,0,1129458
0.0,-0.020981091602866445,1,1129481
0.0,-0.01041990897728267,0,1129528
0.0,-0.020368706203487453,1,1129551
0.015061217375123928,-0.035743817046304784,2,1129575
0.004420499517014766,-0.012672241499482397,0,1129598
0.004872859333366158,-0.0185632354093774,1,1134754
0.012412383907677267,-0.012642836390314235,0,1134872
0.0020768082339786722,-0.019680642236311423,1,1145118
0.0024986161210840347,-0.014992834101331955,0,1145235
-0.007228730245706688,-0.01976340519016278,1,1146547
-0.006503932401484962,-0.04893568713969926,2,1146571
0.002161883439228331,-0.013739462352735266,0,1146782
0.006214082407012101,-0.0341094530751147,1,1161318
0.0,-0.02063789847527347,0,1161340
-0.0,-0.0683067981611947,1,1167622
0.0012074137800192008,-0.05664336137066945,0,1167669
-0.0,-0.03838969732524123,1,1171185
0.0021866920983165936,-0.010866027133227858,0,1171301
0.0,-0.019842738747381194,1,1172496
0.011009594333940258,-0.008232591079192412,0,1172567
0.0,-0.19332293570678366,1,1176410
0.0,-0.2938479729444574,2,1176457
0.0032205667969424806,-0.18134534980312572,1,1176832
0.002065776755116188,-0.127665296241648,0,1176856
-0.001267042594597879,-0.024385322368375928,1,1177020
-0.0036555025456583108,-0.008505818123063367,0,1177067
