x ratio,y ratio,intensity,time,duration,classification
0.0,0.0,0,1368454639026,0,DRIVE_START
-0.03744141134390842,-0.8770837747308311,3,1368454643308,1625,STOP
0.008737224103754826,-0.8022002069277818,3,1368454650738,1617,STOP
-0.0012673121633588347,-0.9194113358824539,3,1368454666261,1666,STOP
-0.04403940640312895,-0.9896469686205902,3,1368454761815,1681,STOP
0.0,0.0,0,1368454766320,0,DRIVE_END
