x ratio,y ratio,intensity,time,duration,classification
0.0,0.0,0,970793,0,DRIVE_START
0.014420210575281813,-0.03972262428841128,2,979512,2766,SPEED_BUMP
0.009459186848622677,-0.0506852933730107,2,989098,2485,SPEED_BUMP
-0.0,-0.1387161297062878,3,997395,10528,SPEED_BUMP
0.0,0.0,0,1011883,0,DRIVE_END
