x ratio,y ratio,intensity,time
0.013033836379363306,-0.03388419335618136,1,979489
0.014420210575281813,-0.03972262428841128,2,979512
0.004704046103554867,-0.03657904084341592,1,979536
0.006007467407723449,-0.041263560532635,2,979559
0.010772329804640246,-0.03278044759461437,1,979583
0.012658433909978423,-0.0132465723471579,0,979606
0.003992090025099681,-0.030376452834249987,1,980309
0.010774161411595424,-0.06355666066546163,2,980333
0.03175297689903338,-0.0282782712979625,1,980426
0.042106928815671144,-0.012310439012101741,0,980450
0.006952245925186755,-0.03762138721117697,1,980684
0.00261071733274299,-0.05191962094966453,2,980708
0.00215036075166827,-0.04106738240658048,1,980754
0.02454805554860933,-0.015694084421645264,0,980801
0.00796905166239952,-0.024588351613638745,1,989075
0.009459186848622677,-0.0506852933730107,2,989098
0.025782388954294216,-0.02992786815127349,1,989169
0.024424762494130194,-0.00835381778560426,0,989192
-0.0,-0.09308527061849822,1,989708
-0.0,-0.11959535213663942,2,989731
0.015436302483920281,-0.050160727657229315,1,989848
0.004964476245530706,-0.018660378475434045,0,989872
0.00716071097241436,-0.03859474336554724,2,989942
0.013980689979013134,-0.014903272881951955,1,990082
0.014858492934795253,-0.0019155582658011764,0,990106
0.0017455938363059305,-0.029208176945165552,1,994301
0.008861638615748752,-0.009336737581428564,0,994372
0.01568314449578289,-0.067788043361177,2,997395
0.02011163305025368,-0.009613571026359364,0,997512
0.0021736134844823197,-0.06700627202412483,2,998075
-0.0,-0.1387161297062878,3,997395
0.0012364755727960405,-0.1171268796585202,2,998169
0.0048546510022514896,-0.0084128346555248,0,998215
0.00921958287858714,0.2543915398360726,2,998333
0.01044181597498993,-0.08880147867196267,2,998356
0.01019145718402118,-0.05515003994270522,1,998426
0.014060939768636357,0.11821891124418879,2,998450
0.004295123277959325,-0.03441540421456208,1,1005087
0.004201141319080042,-0.05887320855446444,2,1005110
0.006347524144340129,-0.01758832165960761,0,1005227
-0.001451949672708531,-0.05433428329913239,1,1005696
-0.0,-0.06514483698024724,2,1005719
0.0015330732179351671,-0.13761827621621678,3,1005837
0.009975412214013593,-0.1332383306436355,2,1005931
0.01134417995874875,-0.014219486201347392,0,1006000
-0.0,-0.019839069241459895,1,1006328
0.0,-0.040149192672983364,2,1006375
0.0,-0.028530105818335084,1,1006422
-0.0,-0.015658214489912864,0,1006469
0.006088161601811719,-0.015964841292175274,1,1006915
0.003738318266506108,-0.008152206443235518,0,1006938
0.0044275439915001024,-0.014897671997056125,1,1007876
0.004927991806387878,-0.011826024613002157,0,1007899
0.007211659718643529,-0.029293317673978313,1,1008954
0.0030495132587358216,-0.025935673499808472,0,1009071
0.00612269154511795,-0.03205566892527865,1,1009329
0.004662213406929409,-0.026523443339079408,0,1009352
