x ratio,y ratio,intensity,time,duration,classification
0.0,0.0,0,728314,0,DRIVE_START
0.0037676488949639304,0.4049372451010435,2,752286,1829,ACCELERATE
0.009539442035049256,0.15981412420851177,2,755538,25300,ACCELERATE
0.005444895081188333,-0.6914755862631519,2,783137,26826,ACCELERATE
0.7087784316806348,-0.024015006347067092,2,820912,1623,TURN_RIGHT
0.2452423800918069,-0.060646680862018444,2,830864,1598,TURN_LEFT
0.7375323185150666,-0.038072097912584785,2,838314,1573,TURN_RIGHT
0.3174061037944053,-0.13060022231304996,2,842415,1574,TURN_RIGHT
0.5439614446628551,-0.07799895772151162,3,853614,1600,TURN_RIGHT
0.0,0.0,0,859962,0,DRIVE_END
