x ratio,y ratio,intensity,time
0.10319574648957384,0.29351986216973797,2,30021421
0.12450005661305233,0.32415799538559636,2,30021466
0.13185726227854555,0.30042106437122285,2,30021509
0.14346336208777355,0.3138771152854334,2,30021551
0.16910023672208413,0.24899066071221504,2,30021731
0.16556483385469392,0.26744765013087324,2,30021780
0.18332939458645237,0.25282617490827286,2,30021825
0.19751199623843127,-0.0014131760170844078,0,30022575
-0.0,-0.03880501459244249,1,30031590
-0.0031943742064407727,-0.015582288276206155,0,30031633
-0.0,-0.09077911102047796,2,30031676
0.0,-0.00278809468029359,0,30031766
0.004962225466165725,-0.20756235152325817,2,30032204
-0.0,-0.022411321372938994,1,30032333
-0.0022802236464036047,0.09603246367047345,2,30032419
0.0,-0.052632395665307065,2,30043528
-0.0,-0.029684633235364057,1,30043571
-0.0,-0.04998883883962882,2,30043620
-0.0,-0.022050672976849706,1,30043665
-0.0,-0.002932709723787903,0,30043708
0.0020089150786160278,-0.22601712500399032,3,30031676
0.002723209682478978,-0.1135453374544016,2,30044164
-0.0,0.1404074468469349,2,30044294
0.0,0.0265361088758489,0,30044338
0.03430062681470654,-0.3950687417187985,1,30047627
0.04120484771007199,-0.47451707396734466,2,30047711
0.02242920612041193,-0.26059146982248826,1,30047891
0.010892021828544205,-0.19792261850586695,0,30047945
