x ratio,y ratio,intensity,time
0.012075090040044251,0.12091462846051927,1,19207989
0.012881656892465902,0.12271376501702712,0,19208036
0.004008023909441912,0.06893454830840731,1,19209731
0.006507058694512518,0.07418041191419766,0,19209774
