x ratio,y ratio,intensity,time
0.012075090040044251,0.36274388538155783,2,19207989
0.012881656892465902,0.36814129505108134,2,19208036
0.004008023909441912,0.20680364492522194,2,19209731
0.006507058694512518,0.222541235742593,2,19209774
