0.6512228846549988,5.286397457122803,7.048529624938965,19199766
0.07661445438861847,5.286397457122803,8.08282470703125,19199813
0.5746083855628967,4.788403511047363,6.89530086517334,19199856
0.5746083855628967,5.324704647064209,6.89530086517334,19199899
0.5746083855628967,5.324704647064209,8.236053466796875,19199943
0.5746083855628967,4.8267107009887695,6.282385349273682,19199994
0.26815059781074524,5.51624059677124,8.312667846679688,19200035
0.49799394607543945,5.51624059677124,7.967903137207031,19200083
1.0342950820922852,5.51624059677124,6.742072105407715,19200126
0.4596867263317108,5.1331682205200195,6.320692539215088,19200169
-0.1149216815829277,5.51624059677124,8.65743350982666,19200216
0.49799394607543945,5.171475887298584,7.163451671600342,19200258
0.689530074596405,5.171475887298584,6.780379295349121,19200303
0.3447650372982025,5.861005783081055,8.197746276855469,19200348
0.7661445140838623,5.363011837005615,7.546523571014404,19200391
0.7661445140838623,5.171475887298584,6.205770969390869,19200434
0.19153612852096558,5.363011837005615,7.738059997558594,19200477
0.19153612852096558,5.363011837005615,7.738059997558594,19200520
0.727837324142456,5.094861030578613,6.3973069190979,19200565
0.4596867263317108,5.363011837005615,6.780379295349121,19200610
0.15322890877723694,5.363011837005615,8.35097599029541,19200653
0.727837324142456,5.363011837005615,6.89530086517334,19200700
0.727837324142456,5.363011837005615,7.508216381072998,19200745
0.4596867263317108,5.056553840637207,6.89530086517334,19200790
0.19153612852096558,5.324704647064209,7.738059997558594,19200833
0.5746083855628967,5.324704647064209,7.738059997558594,19200880
1.1492167711257935,5.324704647064209,6.703764915466309,19200924
0.49799394607543945,5.51624059677124,6.89530086517334,19200970
0.15322890877723694,5.324704647064209,8.121131896972656,19201012
0.5746083855628967,5.018246650695801,6.3973069190979,19201055
0.3447650372982025,5.286397457122803,7.469909191131592,19201098
0.6512228846549988,5.70777702331543,7.469909191131592,19201145
0.9193734526634216,5.094861030578613,6.818686485290527,19201188
0.4596867263317108,4.8267107009887695,6.3973069190979,19201231
-0.07661445438861847,5.286397457122803,8.810662269592285,19201274
0.9193734526634216,5.477933406829834,7.048529624938965,19201317
0.5363011956214905,5.70777702331543,6.856993675231934,19201366
-0.1149216815829277,5.056553840637207,7.393294811248779,19201411
0.15322890877723694,4.8267107009887695,6.856993675231934,19201454
0.6512228846549988,5.363011837005615,7.738059997558594,19201497
0.9193734526634216,5.70777702331543,7.738059997558594,19201546
0.4213795065879822,5.324704647064209,6.971915245056152,19201591
0.038307227194309235,5.324704647064209,7.469909191131592,19201633
0.3064578175544739,5.324704647064209,7.240066051483154,19201676
0.49799394607543945,5.324704647064209,6.933608055114746,19201726
0.26815059781074524,5.324704647064209,7.163451671600342,19201771
0.49799394607543945,5.746084213256836,8.389283180236816,19201813
1.1109095811843872,5.171475887298584,6.703764915466309,19201856
0.6512228846549988,5.592854976654053,7.048529624938965,19201903
0.2298433631658554,5.20978307723999,8.121131896972656,19201946
0.5363011956214905,5.4013190269470215,6.703764915466309,19201993
0.1149216815829277,5.4013190269470215,7.929595947265625,19202037
0.38307225704193115,5.4013190269470215,7.393294811248779,19202078
0.8044517636299133,4.941632270812988,6.3973069190979,19202122
0.5746083855628967,5.171475887298584,6.818686485290527,19202167
0.5746083855628967,5.51624059677124,8.312667846679688,19202211
0.8810662031173706,5.51624059677124,6.818686485290527,19202255
0.6129156351089478,5.51624059677124,7.048529624938965,19202298
0.3064578175544739,5.51624059677124,7.5848307609558105,19202344
0.3064578175544739,5.1331682205200195,6.435614109039307,19202387
0.5363011956214905,5.1331682205200195,7.316680431365967,19202430
0.5363011956214905,5.4013190269470215,7.7763671875,19202477
1.0342950820922852,5.4013190269470215,6.703764915466309,19202524
0.689530074596405,5.70777702331543,7.4316020011901855,19202567
0.689530074596405,5.363011837005615,7.4316020011901855,19202610
0.3064578175544739,5.171475887298584,7.086836814880371,19202657
0.3064578175544739,5.171475887298584,7.086836814880371,19202700
0.5746083855628967,5.51624059677124,7.508216381072998,19202747
0.8044517636299133,5.746084213256836,7.240066051483154,19202790
0.4213795065879822,5.439626216888428,7.240066051483154,19202837
0.4213795065879822,5.056553840637207,6.703764915466309,19202880
-0.2298433631658554,5.4013190269470215,7.1251444816589355,19202926
-0.2298433631658554,5.4013190269470215,7.508216381072998,19202969
0.4596867263317108,5.4013190269470215,6.818686485290527,19203012
0.8044517636299133,5.4013190269470215,7.5848307609558105,19203055
0.8044517636299133,5.669469833374023,8.236053466796875,19203098
0.8044517636299133,5.439626216888428,7.316680431365967,19203143
0.8044517636299133,5.094861030578613,6.627150535583496,19203188
0.8044517636299133,5.592854976654053,7.7763671875,19203231
0.3447650372982025,5.861005783081055,8.389283180236816,19203274
1.3024457693099976,5.51624059677124,5.669469833374023,19203323
0.6512228846549988,5.20978307723999,7.163451671600342,19203368
0.2298433631658554,5.439626216888428,7.546523571014404,19203411
0.689530074596405,5.094861030578613,7.354987621307373,19203454
0.9576807022094727,5.094861030578613,5.669469833374023,19203501
0.15322890877723694,5.5545477867126465,8.848969459533691,19203547
0.9193734526634216,5.363011837005615,7.4316020011901855,19203590
1.1492167711257935,5.094861030578613,6.282385349273682,19203633
0.26815059781074524,5.094861030578613,6.780379295349121,19203677
-0.3447650372982025,5.4013190269470215,8.197746276855469,19203719
0.5746083855628967,5.4013190269470215,7.393294811248779,19203764
1.0342950820922852,5.70777702331543,6.742072105407715,19203809
0.689530074596405,5.70777702331543,8.312667846679688,19203853
0.689530074596405,5.056553840637207,6.358999729156494,19203899
0.1149216815829277,5.363011837005615,8.121131896972656,19203946
0.1149216815829277,5.363011837005615,7.354987621307373,19203989
0.3447650372982025,5.363011837005615,6.742072105407715,19204040
0.15322890877723694,5.363011837005615,7.354987621307373,19204086
0.727837324142456,5.171475887298584,7.354987621307373,19204129
0.727837324142456,5.171475887298584,7.048529624938965,19204172
0.38307225704193115,5.4013190269470215,7.814674377441406,19204215
0.6512228846549988,5.4013190269470215,6.971915245056152,19204262
0.6512228846549988,5.4013190269470215,6.971915245056152,19204305
0.4213795065879822,5.056553840637207,7.2783732414245605,19204350
0.6512228846549988,5.2480902671813965,7.967903137207031,19204395
0.6512228846549988,5.2480902671813965,7.2783732414245605,19204438
0.6512228846549988,5.2480902671813965,7.2783732414245605,19204485
0.19153612852096558,5.2480902671813965,7.2783732414245605,19204530
0.4213795065879822,5.2480902671813965,7.048529624938965,19204575
0.689530074596405,5.2480902671813965,7.048529624938965,19204618
0.8810662031173706,5.5545477867126465,7.7763671875,19204661
0.8810662031173706,5.056553840637207,6.205770969390869,19204708
0.07661445438861847,5.477933406829834,8.35097599029541,19204750
0.07661445438861847,5.1331682205200195,7.316680431365967,19204793
0.49799394607543945,5.5545477867126465,7.316680431365967,19204836
0.49799394607543945,5.324704647064209,7.316680431365967,19204879
0.49799394607543945,5.018246650695801,6.703764915466309,19204925
0.15322890877723694,5.20978307723999,7.814674377441406,19204969
0.8044517636299133,5.20978307723999,7.010222434997559,19205012
1.072602391242981,5.784391403198242,7.010222434997559,19205055
0.5363011956214905,5.784391403198242,7.891288757324219,19205098
0.3447650372982025,5.477933406829834,7.891288757324219,19205143
0.3447650372982025,4.788403511047363,6.282385349273682,19205188
0.1149216815829277,5.477933406829834,7.967903137207031,19205231
0.5746083855628967,5.018246650695801,6.473921298980713,19205274
0.3447650372982025,5.018246650695801,6.856993675231934,19205317
0.1149216815829277,5.70777702331543,9.117119789123535,19205366
1.6089035272598267,5.70777702331543,7.469909191131592,19205411
1.6089035272598267,5.324704647064209,5.056553840637207,19205454
-0.38307225704193115,5.669469833374023,8.619126319885254,19205497
-0.38307225704193115,4.903325080871582,7.814674377441406,19205546
0.4213795065879822,5.324704647064209,6.512228488922119,19205591
0.4213795065879822,6.167463779449463,8.044517517089844,19205633
0.8427590131759644,5.51624059677124,7.010222434997559,19205676
0.4596867263317108,4.558559894561768,6.01423454284668,19205726
-0.38307225704193115,5.477933406829834,9.500192642211914,19205771
1.1109095811843872,5.784391403198242,8.159439086914063,19205813
1.7621324062347412,5.2480902671813965,4.558559894561768,19205856
0.2298433631658554,5.2480902671813965,7.010222434997559,19205899
-0.4213795065879822,5.2480902671813965,9.730035781860352,19205944
1.1109095811843872,5.2480902671813965,6.244078159332275,19205989
1.3407529592514038,5.477933406829834,6.244078159332275,19206036
0.038307227194309235,5.937620162963867,8.810662269592285,19206079
0.038307227194309235,4.711789131164551,6.244078159332275,19206123
0.038307227194309235,4.9799394607543945,6.627150535583496,19206166
0.5363011956214905,5.20978307723999,7.929595947265625,19206207
1.2258312702178955,5.20978307723999,6.435614109039307,19206250
0.7661445140838623,5.20978307723999,7.661445617675781,19206294
0.4213795065879822,5.018246650695801,7.240066051483154,19206337
0.4213795065879822,5.669469833374023,7.891288757324219,19206380
0.6512228846549988,5.286397457122803,7.048529624938965,19199766
0.07661445438861847,5.286397457122803,8.08282470703125,19199813
0.5746083855628967,4.788403511047363,6.89530086517334,19199856
0.5746083855628967,5.324704647064209,6.89530086517334,19199899
0.5746083855628967,5.324704647064209,8.236053466796875,19199943
0.5746083855628967,4.8267107009887695,6.282385349273682,19199994
0.26815059781074524,5.51624059677124,8.312667846679688,19200035
0.49799394607543945,5.51624059677124,7.967903137207031,19200083
1.0342950820922852,5.51624059677124,6.742072105407715,19200126
0.4596867263317108,5.1331682205200195,6.320692539215088,19200169
-0.1149216815829277,5.51624059677124,8.65743350982666,19200216
0.49799394607543945,5.171475887298584,7.163451671600342,19200258
0.689530074596405,5.171475887298584,6.780379295349121,19200303
0.3447650372982025,5.861005783081055,8.197746276855469,19200348
0.7661445140838623,5.363011837005615,7.546523571014404,19200391
0.7661445140838623,5.171475887298584,6.205770969390869,19200434
0.19153612852096558,5.363011837005615,7.738059997558594,19200477
0.19153612852096558,5.363011837005615,7.738059997558594,19200520
0.727837324142456,5.094861030578613,6.3973069190979,19200565
0.4596867263317108,5.363011837005615,6.780379295349121,19200610
0.15322890877723694,5.363011837005615,8.35097599029541,19200653
0.727837324142456,5.363011837005615,6.89530086517334,19200700
0.727837324142456,5.363011837005615,7.508216381072998,19200745
0.4596867263317108,5.056553840637207,6.89530086517334,19200790
0.19153612852096558,5.324704647064209,7.738059997558594,19200833
0.5746083855628967,5.324704647064209,7.738059997558594,19200880
1.1492167711257935,5.324704647064209,6.703764915466309,19200924
0.49799394607543945,5.51624059677124,6.89530086517334,19200970
0.15322890877723694,5.324704647064209,8.121131896972656,19201012
0.5746083855628967,5.018246650695801,6.3973069190979,19201055
0.3447650372982025,5.286397457122803,7.469909191131592,19201098
0.6512228846549988,5.70777702331543,7.469909191131592,19201145
0.9193734526634216,5.094861030578613,6.818686485290527,19201188
0.4596867263317108,4.8267107009887695,6.3973069190979,19201231
-0.07661445438861847,5.286397457122803,8.810662269592285,19201274
0.9193734526634216,5.477933406829834,7.048529624938965,19201317
0.5363011956214905,5.70777702331543,6.856993675231934,19201366
-0.1149216815829277,5.056553840637207,7.393294811248779,19201411
0.15322890877723694,4.8267107009887695,6.856993675231934,19201454
0.6512228846549988,5.363011837005615,7.738059997558594,19201497
0.9193734526634216,5.70777702331543,7.738059997558594,19201546
0.4213795065879822,5.324704647064209,6.971915245056152,19201591
0.038307227194309235,5.324704647064209,7.469909191131592,19201633
0.3064578175544739,5.324704647064209,7.240066051483154,19201676
0.49799394607543945,5.324704647064209,6.933608055114746,19201726
0.26815059781074524,5.324704647064209,7.163451671600342,19201771
0.49799394607543945,5.746084213256836,8.389283180236816,19201813
1.1109095811843872,5.171475887298584,6.703764915466309,19201856
0.6512228846549988,5.592854976654053,7.048529624938965,19201903
0.2298433631658554,5.20978307723999,8.121131896972656,19201946
0.5363011956214905,5.4013190269470215,6.703764915466309,19201993
0.1149216815829277,5.4013190269470215,7.929595947265625,19202037
0.38307225704193115,5.4013190269470215,7.393294811248779,19202078
0.8044517636299133,4.941632270812988,6.3973069190979,19202122
0.5746083855628967,5.171475887298584,6.818686485290527,19202167
0.5746083855628967,5.51624059677124,8.312667846679688,19202211
0.8810662031173706,5.51624059677124,6.818686485290527,19202255
0.6129156351089478,5.51624059677124,7.048529624938965,19202298
0.3064578175544739,5.51624059677124,7.5848307609558105,19202344
0.3064578175544739,5.1331682205200195,6.435614109039307,19202387
0.5363011956214905,5.1331682205200195,7.316680431365967,19202430
0.5363011956214905,5.4013190269470215,7.7763671875,19202477
1.0342950820922852,5.4013190269470215,6.703764915466309,19202524
0.689530074596405,5.70777702331543,7.4316020011901855,19202567
0.689530074596405,5.363011837005615,7.4316020011901855,19202610
0.3064578175544739,5.171475887298584,7.086836814880371,19202657
0.3064578175544739,5.171475887298584,7.086836814880371,19202700
0.5746083855628967,5.51624059677124,7.508216381072998,19202747
0.8044517636299133,5.746084213256836,7.240066051483154,19202790
0.4213795065879822,5.439626216888428,7.240066051483154,19202837
0.4213795065879822,5.056553840637207,6.703764915466309,19202880
-0.2298433631658554,5.4013190269470215,7.1251444816589355,19202926
-0.2298433631658554,5.4013190269470215,7.508216381072998,19202969
0.4596867263317108,5.4013190269470215,6.818686485290527,19203012
0.8044517636299133,5.4013190269470215,7.5848307609558105,19203055
0.8044517636299133,5.669469833374023,8.236053466796875,19203098
0.8044517636299133,5.439626216888428,7.316680431365967,19203143
0.8044517636299133,5.094861030578613,6.627150535583496,19203188
0.8044517636299133,5.592854976654053,7.7763671875,19203231
0.3447650372982025,5.861005783081055,8.389283180236816,19203274
1.3024457693099976,5.51624059677124,5.669469833374023,19203323
0.6512228846549988,5.20978307723999,7.163451671600342,19203368
0.2298433631658554,5.439626216888428,7.546523571014404,19203411
0.689530074596405,5.094861030578613,7.354987621307373,19203454
0.9576807022094727,5.094861030578613,5.669469833374023,19203501
0.15322890877723694,5.5545477867126465,8.848969459533691,19203547
0.9193734526634216,5.363011837005615,7.4316020011901855,19203590
1.1492167711257935,5.094861030578613,6.282385349273682,19203633
0.26815059781074524,5.094861030578613,6.780379295349121,19203677
-0.3447650372982025,5.4013190269470215,8.197746276855469,19203719
0.5746083855628967,5.4013190269470215,7.393294811248779,19203764
1.0342950820922852,5.70777702331543,6.742072105407715,19203809
0.689530074596405,5.70777702331543,8.312667846679688,19203853
0.689530074596405,5.056553840637207,6.358999729156494,19203899
0.1149216815829277,5.363011837005615,8.121131896972656,19203946
0.1149216815829277,5.363011837005615,7.354987621307373,19203989
0.3447650372982025,5.363011837005615,6.742072105407715,19204040
0.15322890877723694,5.363011837005615,7.354987621307373,19204086
0.727837324142456,5.171475887298584,7.354987621307373,19204129
0.727837324142456,5.171475887298584,7.048529624938965,19204172
0.38307225704193115,5.4013190269470215,7.814674377441406,19204215
0.6512228846549988,5.4013190269470215,6.971915245056152,19204262
0.6512228846549988,5.4013190269470215,6.971915245056152,19204305
0.4213795065879822,5.056553840637207,7.2783732414245605,19204350
0.6512228846549988,5.2480902671813965,7.967903137207031,19204395
0.6512228846549988,5.2480902671813965,7.2783732414245605,19204438
0.6512228846549988,5.2480902671813965,7.2783732414245605,19204485
0.19153612852096558,5.2480902671813965,7.2783732414245605,19204530
0.4213795065879822,5.2480902671813965,7.048529624938965,19204575
0.689530074596405,5.2480902671813965,7.048529624938965,19204618
0.8810662031173706,5.5545477867126465,7.7763671875,19204661
0.8810662031173706,5.056553840637207,6.205770969390869,19204708
0.07661445438861847,5.477933406829834,8.35097599029541,19204750
0.07661445438861847,5.1331682205200195,7.316680431365967,19204793
0.49799394607543945,5.5545477867126465,7.316680431365967,19204836
0.49799394607543945,5.324704647064209,7.316680431365967,19204879
0.49799394607543945,5.018246650695801,6.703764915466309,19204925
0.15322890877723694,5.20978307723999,7.814674377441406,19204969
0.8044517636299133,5.20978307723999,7.010222434997559,19205012
1.072602391242981,5.784391403198242,7.010222434997559,19205055
0.5363011956214905,5.784391403198242,7.891288757324219,19205098
0.3447650372982025,5.477933406829834,7.891288757324219,19205143
0.3447650372982025,4.788403511047363,6.282385349273682,19205188
0.1149216815829277,5.477933406829834,7.967903137207031,19205231
0.5746083855628967,5.018246650695801,6.473921298980713,19205274
0.3447650372982025,5.018246650695801,6.856993675231934,19205317
0.1149216815829277,5.70777702331543,9.117119789123535,19205366
1.6089035272598267,5.70777702331543,7.469909191131592,19205411
1.6089035272598267,5.324704647064209,5.056553840637207,19205454
-0.38307225704193115,5.669469833374023,8.619126319885254,19205497
-0.38307225704193115,4.903325080871582,7.814674377441406,19205546
0.4213795065879822,5.324704647064209,6.512228488922119,19205591
0.4213795065879822,6.167463779449463,8.044517517089844,19205633
0.8427590131759644,5.51624059677124,7.010222434997559,19205676
0.4596867263317108,4.558559894561768,6.01423454284668,19205726
-0.38307225704193115,5.477933406829834,9.500192642211914,19205771
1.1109095811843872,5.784391403198242,8.159439086914063,19205813
1.7621324062347412,5.2480902671813965,4.558559894561768,19205856
0.2298433631658554,5.2480902671813965,7.010222434997559,19205899
-0.4213795065879822,5.2480902671813965,9.730035781860352,19205944
1.1109095811843872,5.2480902671813965,6.244078159332275,19205989
1.3407529592514038,5.477933406829834,6.244078159332275,19206036
0.038307227194309235,5.937620162963867,8.810662269592285,19206079
0.038307227194309235,4.711789131164551,6.244078159332275,19206123
0.038307227194309235,4.9799394607543945,6.627150535583496,19206166
0.5363011956214905,5.20978307723999,7.929595947265625,19206207
1.2258312702178955,5.20978307723999,6.435614109039307,19206250
0.7661445140838623,5.20978307723999,7.661445617675781,19206294
0.4213795065879822,5.018246650695801,7.240066051483154,19206337
0.4213795065879822,5.669469833374023,7.891288757324219,19206380
0.727837324142456,5.4013190269470215,6.473921298980713,19206425
0.4596867263317108,5.4013190269470215,7.316680431365967,19206469
0.4596867263317108,4.941632270812988,7.048529624938965,19206512
0.4596867263317108,5.286397457122803,8.159439086914063,19206555
1.2258312702178955,5.286397457122803,7.393294811248779,19206598
1.455674648284912,5.937620162963867,7.048529624938965,19206642
0.9576807022094727,5.4013190269470215,6.358999729156494,19206685
0.15322890877723694,5.20978307723999,6.358999729156494,19206727
0.15322890877723694,6.320692539215088,7.7763671875,19206774
0.9959878921508789,6.703764915466309,6.205770969390869,19206817
1.37906014919281,6.435614109039307,5.171475887298584,19206860
1.1492167711257935,6.435614109039307,6.320692539215088,19206911
0.49799394607543945,6.205770969390869,7.2783732414245605,19206954
0.49799394607543945,6.01423454284668,6.320692539215088,19206997
0.8427590131759644,6.320692539215088,6.320692539215088,19207040
1.3407529592514038,6.052541732788086,6.320692539215088,19207087
1.3407529592514038,5.592854976654053,5.5545477867126465,19207131
0.15322890877723694,5.592854976654053,7.546523571014404,19207176
0.15322890877723694,6.167463779449463,7.814674377441406,19207219
0.6129156351089478,6.627150535583496,5.592854976654053,19207264
0.9576807022094727,7.4316020011901855,5.592854976654053,19207309
1.2258312702178955,7.010222434997559,6.205770969390869,19207356
0.6129156351089478,6.665457725524902,6.627150535583496,19207399
0.2298433631658554,6.052541732788086,7.1251444816589355,19207444
0.8427590131759644,6.282385349273682,7.5848307609558105,19207490
1.455674648284912,5.018246650695801,6.167463779449463,19207546
0.4596867263317108,4.63517427444458,6.167463779449463,19207590
-0.19153612852096558,4.8267107009887695,7.2783732414245605,19207633
0.38307225704193115,5.70777702331543,7.5848307609558105,19207676
1.2641384601593018,6.205770969390869,6.320692539215088,19207719
1.2641384601593018,7.201758861541748,5.975927352905273,19207766
1.2641384601593018,7.508216381072998,5.20978307723999,19207809
1.2641384601593018,8.006210327148438,5.20978307723999,19207856
1.2641384601593018,8.504204750061035,5.861005783081055,19207899
1.6089035272598267,9.078812599182129,6.090848922729492,19207946
2.030282974243164,8.772355079650879,5.784391403198242,19207989
1.5705963373184204,7.546523571014404,4.9799394607543945,19208036
0.6129156351089478,6.703764915466309,4.596867084503174,19208079
0.4213795065879822,6.703764915466309,4.941632270812988,19208121
0.4213795065879822,7.508216381072998,5.5545477867126465,19208165
0.7661445140838623,8.044517517089844,6.01423454284668,19208207
1.9153614044189453,7.661445617675781,4.405331134796143,19208250
1.647210717201233,7.354987621307373,4.865017890930176,19208294
0.3447650372982025,7.086836814880371,6.3973069190979,19208340
0.7661445140838623,7.6997528076171875,5.784391403198242,19208387
1.37906014919281,8.312667846679688,6.129156112670898,19208430
2.298433542251587,7.393294811248779,4.213795185089111,19208473
1.2641384601593018,7.393294811248779,5.363011837005615,19208520
0.26815059781074524,7.891288757324219,7.393294811248779,19208567
1.1109095811843872,8.772355079650879,6.3973069190979,19208610
2.451662540435791,8.197746276855469,5.286397457122803,19208653
1.9536685943603516,6.627150535583496,4.022258758544922,19208700
-0.1149216815829277,6.090848922729492,5.439626216888428,19208747
-0.1149216815829277,6.780379295349121,6.167463779449463,19208790
1.4939818382263184,7.814674377441406,4.750096321105957,19208833
2.3367409706115723,8.465897560119629,5.2480902671813965,19208880
1.6089035272598267,7.469909191131592,6.167463779449463,19208926
0.9193734526634216,6.358999729156494,5.094861030578613,19208970
0.6512228846549988,5.975927352905273,4.63517427444458,19209012
0.6512228846549988,7.316680431365967,6.052541732788086,19209059
1.5322890281677246,8.389283180236816,7.2783732414245605,19209106
3.1028854846954346,7.469909191131592,4.903325080871582,19209149
2.3367409706115723,6.550535678863525,4.367023944854736,19209193
0.8044517636299133,6.550535678863525,6.282385349273682,19209235
1.3407529592514038,6.971915245056152,6.627150535583496,19209278
2.719813108444214,7.508216381072998,5.439626216888428,19209323
3.1028854846954346,7.508216381072998,4.711789131164551,19209368
1.8770540952682495,7.508216381072998,6.89530086517334,19209415
1.8770540952682495,6.856993675231934,6.129156112670898,19209458
1.3024457693099976,6.856993675231934,5.669469833374023,19209506
0.6129156351089478,7.163451671600342,6.627150535583496,19209552
0.6129156351089478,7.967903137207031,7.048529624938965,19209594
1.2258312702178955,7.738059997558594,6.665457725524902,19209637
0.9959878921508789,7.738059997558594,6.129156112670898,19209686
0.6512228846549988,7.738059997558594,7.7763671875,19209731
1.6089035272598267,7.1251444816589355,5.018246650695801,19209774
1.1875240802764893,6.742072105407715,3.7158010005950928,19209817
0.38307225704193115,6.742072105407715,5.822698593139648,19209860
0.8044517636299133,6.205770969390869,5.51624059677124,19209904
0.8044517636299133,6.588842868804932,5.51624059677124,19209946
1.072602391242981,6.89530086517334,5.51624059677124,19209989
1.9153614044189453,7.4316020011901855,4.788403511047363,19210032
1.6855180263519287,6.933608055114746,6.703764915466309,19210079
1.8770540952682495,5.861005783081055,5.669469833374023,19210123
0.7661445140838623,5.2480902671813965,6.435614109039307,19210168
0.38307225704193115,5.669469833374023,7.316680431365967,19210211
1.0342950820922852,6.129156112670898,5.439626216888428,19210255
0.8044517636299133,6.742072105407715,6.01423454284668,19210297
0.38307225704193115,7.048529624938965,7.738059997558594,19210341
0.9576807022094727,7.048529624938965,6.703764915466309,19210385
1.3407529592514038,6.703764915466309,6.090848922729492,19210431
0.9576807022094727,6.090848922729492,6.090848922729492,19210473
0.6512228846549988,6.090848922729492,6.282385349273682,19210516
0.6512228846549988,6.856993675231934,7.086836814880371,19210563
1.4173674583435059,7.048529624938965,6.435614109039307,19210606
1.4173674583435059,6.550535678863525,5.669469833374023,19210653
0.26815059781074524,6.550535678863525,7.2783732414245605,19210696
0.49799394607543945,6.550535678863525,6.435614109039307,19210745
0.9959878921508789,6.856993675231934,6.205770969390869,19210790
0.9959878921508789,6.856993675231934,6.435614109039307,19210833
0.9959878921508789,6.358999729156494,6.435614109039307,19210876
0.5363011956214905,6.01423454284668,7.2783732414245605,19210925
0.5363011956214905,5.822698593139648,7.2783732414245605,19210970
0.5363011956214905,5.822698593139648,6.435614109039307,19211012
0.07661445438861847,6.282385349273682,6.435614109039307,19211055
0.07661445438861847,6.89530086517334,6.435614109039307,19211104
0.07661445438861847,6.89530086517334,6.090848922729492,19211149
-0.38307225704193115,6.550535678863525,6.435614109039307,19211192
-0.38307225704193115,5.899312973022461,5.937620162963867,19211235
-0.38307225704193115,5.439626216888428,6.933608055114746,19211284
-0.9193734526634216,4.8267107009887695,7.240066051483154,19211329
-0.9193734526634216,5.056553840637207,6.473921298980713,19211372
-0.5746083855628967,5.861005783081055,7.393294811248779,19211415
0.3447650372982025,6.627150535583496,6.818686485290527,19211464
0.689530074596405,6.205770969390869,6.818686485290527,19211508
-0.07661445438861847,5.5545477867126465,6.818686485290527,19211551
-0.5746083855628967,5.286397457122803,7.201758861541748,19211596
-0.19153612852096558,5.286397457122803,6.435614109039307,19211643
-0.19153612852096558,5.286397457122803,7.163451671600342,19211688
-0.6129156351089478,4.865017890930176,6.703764915466309,19211731
-0.4213795065879822,4.865017890930176,6.703764915466309,19211775
-0.4213795065879822,4.481945514678955,6.3973069190979,19211817
-0.15322890877723694,5.018246650695801,7.623138427734375,19211860
-0.15322890877723694,5.20978307723999,8.695740699768066,19211903
0.2298433631658554,5.20978307723999,8.121131896972656,19211946
0.2298433631658554,5.20978307723999,8.121131896972656,19211989
-0.038307227194309235,5.784391403198242,9.232041358947754,19212036
-0.038307227194309235,6.01423454284668,7.891288757324219,19212079
-0.038307227194309235,6.01423454284668,7.6997528076171875,19212126
-0.3447650372982025,5.631162166595459,8.08282470703125,19212169
-0.3447650372982025,5.056553840637207,7.8529815673828125,19212211
-0.3447650372982025,5.056553840637207,6.818686485290527,19212254
-0.3447650372982025,5.056553840637207,6.818686485290527,19212297
0.3064578175544739,4.596867084503174,6.129156112670898,19212340
0.49799394607543945,4.290409564971924,5.784391403198242,19212387
-0.07661445438861847,4.060565948486328,7.201758861541748,19212430
-0.38307225704193115,4.290409564971924,7.4316020011901855,19212475
-0.38307225704193115,4.290409564971924,8.159439086914063,19212517
0.2298433631658554,5.056553840637207,7.6997528076171875,19212559
0.038307227194309235,6.167463779449463,8.312667846679688,19212605
0.038307227194309235,5.937620162963867,7.086836814880371,19212649
-0.3447650372982025,5.4013190269470215,8.159439086914063,19212695
-0.6512228846549988,5.171475887298584,8.925583839416504,19212739
-0.2298433631658554,5.171475887298584,7.738059997558594,19212784
-0.49799394607543945,5.5545477867126465,7.393294811248779,19212829
-0.26815059781074524,5.861005783081055,8.389283180236816,19212872
0.49799394607543945,5.51624059677124,7.661445617675781,19212915
0.8044517636299133,4.865017890930176,6.818686485290527,19212958
0.038307227194309235,4.865017890930176,7.623138427734375,19213001
0.038307227194309235,5.2480902671813965,8.274360656738281,19213045
0.6512228846549988,5.286397457122803,7.048529624938965,19199766
0.07661445438861847,5.286397457122803,8.08282470703125,19199813
0.5746083855628967,4.788403511047363,6.89530086517334,19199856
0.5746083855628967,5.324704647064209,6.89530086517334,19199899
0.5746083855628967,5.324704647064209,8.236053466796875,19199943
0.5746083855628967,4.8267107009887695,6.282385349273682,19199994
0.26815059781074524,5.51624059677124,8.312667846679688,19200035
0.49799394607543945,5.51624059677124,7.967903137207031,19200083
1.0342950820922852,5.51624059677124,6.742072105407715,19200126
0.4596867263317108,5.1331682205200195,6.320692539215088,19200169
-0.1149216815829277,5.51624059677124,8.65743350982666,19200216
0.49799394607543945,5.171475887298584,7.163451671600342,19200258
0.689530074596405,5.171475887298584,6.780379295349121,19200303
0.3447650372982025,5.861005783081055,8.197746276855469,19200348
0.7661445140838623,5.363011837005615,7.546523571014404,19200391
0.7661445140838623,5.171475887298584,6.205770969390869,19200434
0.19153612852096558,5.363011837005615,7.738059997558594,19200477
0.19153612852096558,5.363011837005615,7.738059997558594,19200520
0.727837324142456,5.094861030578613,6.3973069190979,19200565
0.4596867263317108,5.363011837005615,6.780379295349121,19200610
0.15322890877723694,5.363011837005615,8.35097599029541,19200653
0.727837324142456,5.363011837005615,6.89530086517334,19200700
0.727837324142456,5.363011837005615,7.508216381072998,19200745
0.4596867263317108,5.056553840637207,6.89530086517334,19200790
0.19153612852096558,5.324704647064209,7.738059997558594,19200833
0.5746083855628967,5.324704647064209,7.738059997558594,19200880
1.1492167711257935,5.324704647064209,6.703764915466309,19200924
0.49799394607543945,5.51624059677124,6.89530086517334,19200970
0.15322890877723694,5.324704647064209,8.121131896972656,19201012
0.5746083855628967,5.018246650695801,6.3973069190979,19201055
0.3447650372982025,5.286397457122803,7.469909191131592,19201098
0.6512228846549988,5.70777702331543,7.469909191131592,19201145
0.9193734526634216,5.094861030578613,6.818686485290527,19201188
0.4596867263317108,4.8267107009887695,6.3973069190979,19201231
-0.07661445438861847,5.286397457122803,8.810662269592285,19201274
0.9193734526634216,5.477933406829834,7.048529624938965,19201317
0.5363011956214905,5.70777702331543,6.856993675231934,19201366
-0.1149216815829277,5.056553840637207,7.393294811248779,19201411
0.15322890877723694,4.8267107009887695,6.856993675231934,19201454
0.6512228846549988,5.363011837005615,7.738059997558594,19201497
0.9193734526634216,5.70777702331543,7.738059997558594,19201546
0.4213795065879822,5.324704647064209,6.971915245056152,19201591
0.038307227194309235,5.324704647064209,7.469909191131592,19201633
0.3064578175544739,5.324704647064209,7.240066051483154,19201676
0.49799394607543945,5.324704647064209,6.933608055114746,19201726
0.26815059781074524,5.324704647064209,7.163451671600342,19201771
0.49799394607543945,5.746084213256836,8.389283180236816,19201813
1.1109095811843872,5.171475887298584,6.703764915466309,19201856
0.6512228846549988,5.592854976654053,7.048529624938965,19201903
0.2298433631658554,5.20978307723999,8.121131896972656,19201946
0.5363011956214905,5.4013190269470215,6.703764915466309,19201993
0.1149216815829277,5.4013190269470215,7.929595947265625,19202037
0.38307225704193115,5.4013190269470215,7.393294811248779,19202078
0.8044517636299133,4.941632270812988,6.3973069190979,19202122
0.5746083855628967,5.171475887298584,6.818686485290527,19202167
0.5746083855628967,5.51624059677124,8.312667846679688,19202211
0.8810662031173706,5.51624059677124,6.818686485290527,19202255
0.6129156351089478,5.51624059677124,7.048529624938965,19202298
0.3064578175544739,5.51624059677124,7.5848307609558105,19202344
0.3064578175544739,5.1331682205200195,6.435614109039307,19202387
0.5363011956214905,5.1331682205200195,7.316680431365967,19202430
0.5363011956214905,5.4013190269470215,7.7763671875,19202477
1.0342950820922852,5.4013190269470215,6.703764915466309,19202524
0.689530074596405,5.70777702331543,7.4316020011901855,19202567
0.689530074596405,5.363011837005615,7.4316020011901855,19202610
0.3064578175544739,5.171475887298584,7.086836814880371,19202657
0.3064578175544739,5.171475887298584,7.086836814880371,19202700
0.5746083855628967,5.51624059677124,7.508216381072998,19202747
0.8044517636299133,5.746084213256836,7.240066051483154,19202790
0.4213795065879822,5.439626216888428,7.240066051483154,19202837
0.4213795065879822,5.056553840637207,6.703764915466309,19202880
-0.2298433631658554,5.4013190269470215,7.1251444816589355,19202926
-0.2298433631658554,5.4013190269470215,7.508216381072998,19202969
0.4596867263317108,5.4013190269470215,6.818686485290527,19203012
0.8044517636299133,5.4013190269470215,7.5848307609558105,19203055
0.8044517636299133,5.669469833374023,8.236053466796875,19203098
0.8044517636299133,5.439626216888428,7.316680431365967,19203143
0.8044517636299133,5.094861030578613,6.627150535583496,19203188
0.8044517636299133,5.592854976654053,7.7763671875,19203231
0.3447650372982025,5.861005783081055,8.389283180236816,19203274
1.3024457693099976,5.51624059677124,5.669469833374023,19203323
0.6512228846549988,5.20978307723999,7.163451671600342,19203368
0.2298433631658554,5.439626216888428,7.546523571014404,19203411
0.689530074596405,5.094861030578613,7.354987621307373,19203454
0.9576807022094727,5.094861030578613,5.669469833374023,19203501
0.15322890877723694,5.5545477867126465,8.848969459533691,19203547
0.9193734526634216,5.363011837005615,7.4316020011901855,19203590
1.1492167711257935,5.094861030578613,6.282385349273682,19203633
0.26815059781074524,5.094861030578613,6.780379295349121,19203677
-0.3447650372982025,5.4013190269470215,8.197746276855469,19203719
0.5746083855628967,5.4013190269470215,7.393294811248779,19203764
1.0342950820922852,5.70777702331543,6.742072105407715,19203809
0.689530074596405,5.70777702331543,8.312667846679688,19203853
0.689530074596405,5.056553840637207,6.358999729156494,19203899
0.1149216815829277,5.363011837005615,8.121131896972656,19203946
0.1149216815829277,5.363011837005615,7.354987621307373,19203989
0.3447650372982025,5.363011837005615,6.742072105407715,19204040
0.15322890877723694,5.363011837005615,7.354987621307373,19204086
0.727837324142456,5.171475887298584,7.354987621307373,19204129
0.727837324142456,5.171475887298584,7.048529624938965,19204172
0.38307225704193115,5.4013190269470215,7.814674377441406,19204215
0.6512228846549988,5.4013190269470215,6.971915245056152,19204262
0.6512228846549988,5.4013190269470215,6.971915245056152,19204305
0.4213795065879822,5.056553840637207,7.2783732414245605,19204350
0.6512228846549988,5.2480902671813965,7.967903137207031,19204395
0.6512228846549988,5.2480902671813965,7.2783732414245605,19204438
0.6512228846549988,5.2480902671813965,7.2783732414245605,19204485
0.19153612852096558,5.2480902671813965,7.2783732414245605,19204530
0.4213795065879822,5.2480902671813965,7.048529624938965,19204575
0.689530074596405,5.2480902671813965,7.048529624938965,19204618
0.8810662031173706,5.5545477867126465,7.7763671875,19204661
0.8810662031173706,5.056553840637207,6.205770969390869,19204708
0.07661445438861847,5.477933406829834,8.35097599029541,19204750
0.07661445438861847,5.1331682205200195,7.316680431365967,19204793
0.49799394607543945,5.5545477867126465,7.316680431365967,19204836
0.49799394607543945,5.324704647064209,7.316680431365967,19204879
0.49799394607543945,5.018246650695801,6.703764915466309,19204925
0.15322890877723694,5.20978307723999,7.814674377441406,19204969
0.8044517636299133,5.20978307723999,7.010222434997559,19205012
1.072602391242981,5.784391403198242,7.010222434997559,19205055
0.5363011956214905,5.784391403198242,7.891288757324219,19205098
0.3447650372982025,5.477933406829834,7.891288757324219,19205143
0.3447650372982025,4.788403511047363,6.282385349273682,19205188
0.1149216815829277,5.477933406829834,7.967903137207031,19205231
0.5746083855628967,5.018246650695801,6.473921298980713,19205274
0.3447650372982025,5.018246650695801,6.856993675231934,19205317
0.1149216815829277,5.70777702331543,9.117119789123535,19205366
1.6089035272598267,5.70777702331543,7.469909191131592,19205411
1.6089035272598267,5.324704647064209,5.056553840637207,19205454
-0.38307225704193115,5.669469833374023,8.619126319885254,19205497
-0.38307225704193115,4.903325080871582,7.814674377441406,19205546
0.4213795065879822,5.324704647064209,6.512228488922119,19205591
0.4213795065879822,6.167463779449463,8.044517517089844,19205633
0.8427590131759644,5.51624059677124,7.010222434997559,19205676
0.4596867263317108,4.558559894561768,6.01423454284668,19205726
-0.38307225704193115,5.477933406829834,9.500192642211914,19205771
1.1109095811843872,5.784391403198242,8.159439086914063,19205813
1.7621324062347412,5.2480902671813965,4.558559894561768,19205856
0.2298433631658554,5.2480902671813965,7.010222434997559,19205899
-0.4213795065879822,5.2480902671813965,9.730035781860352,19205944
1.1109095811843872,5.2480902671813965,6.244078159332275,19205989
1.3407529592514038,5.477933406829834,6.244078159332275,19206036
0.038307227194309235,5.937620162963867,8.810662269592285,19206079
0.038307227194309235,4.711789131164551,6.244078159332275,19206123
0.038307227194309235,4.9799394607543945,6.627150535583496,19206166
0.5363011956214905,5.20978307723999,7.929595947265625,19206207
1.2258312702178955,5.20978307723999,6.435614109039307,19206250
0.7661445140838623,5.20978307723999,7.661445617675781,19206294
0.4213795065879822,5.018246650695801,7.240066051483154,19206337
0.4213795065879822,5.669469833374023,7.891288757324219,19206380
0.727837324142456,5.4013190269470215,6.473921298980713,19206425
0.4596867263317108,5.4013190269470215,7.316680431365967,19206469
0.4596867263317108,4.941632270812988,7.048529624938965,19206512
0.4596867263317108,5.286397457122803,8.159439086914063,19206555
1.2258312702178955,5.286397457122803,7.393294811248779,19206598
1.455674648284912,5.937620162963867,7.048529624938965,19206642
0.9576807022094727,5.4013190269470215,6.358999729156494,19206685
0.15322890877723694,5.20978307723999,6.358999729156494,19206727
0.15322890877723694,6.320692539215088,7.7763671875,19206774
0.9959878921508789,6.703764915466309,6.205770969390869,19206817
1.37906014919281,6.435614109039307,5.171475887298584,19206860
1.1492167711257935,6.435614109039307,6.320692539215088,19206911
0.49799394607543945,6.205770969390869,7.2783732414245605,19206954
0.49799394607543945,6.01423454284668,6.320692539215088,19206997
0.8427590131759644,6.320692539215088,6.320692539215088,19207040
1.3407529592514038,6.052541732788086,6.320692539215088,19207087
1.3407529592514038,5.592854976654053,5.5545477867126465,19207131
0.15322890877723694,5.592854976654053,7.546523571014404,19207176
0.15322890877723694,6.167463779449463,7.814674377441406,19207219
0.6129156351089478,6.627150535583496,5.592854976654053,19207264
0.9576807022094727,7.4316020011901855,5.592854976654053,19207309
1.2258312702178955,7.010222434997559,6.205770969390869,19207356
0.6129156351089478,6.665457725524902,6.627150535583496,19207399
0.2298433631658554,6.052541732788086,7.1251444816589355,19207444
0.8427590131759644,6.282385349273682,7.5848307609558105,19207490
1.455674648284912,5.018246650695801,6.167463779449463,19207546
0.4596867263317108,4.63517427444458,6.167463779449463,19207590
-0.19153612852096558,4.8267107009887695,7.2783732414245605,19207633
0.38307225704193115,5.70777702331543,7.5848307609558105,19207676
1.2641384601593018,6.205770969390869,6.320692539215088,19207719
1.2641384601593018,7.201758861541748,5.975927352905273,19207766
1.2641384601593018,7.508216381072998,5.20978307723999,19207809
1.2641384601593018,8.006210327148438,5.20978307723999,19207856
1.2641384601593018,8.504204750061035,5.861005783081055,19207899
1.6089035272598267,9.078812599182129,6.090848922729492,19207946
2.030282974243164,8.772355079650879,5.784391403198242,19207989
1.5705963373184204,7.546523571014404,4.9799394607543945,19208036
0.6129156351089478,6.703764915466309,4.596867084503174,19208079
0.4213795065879822,6.703764915466309,4.941632270812988,19208121
0.4213795065879822,7.508216381072998,5.5545477867126465,19208165
0.7661445140838623,8.044517517089844,6.01423454284668,19208207
1.9153614044189453,7.661445617675781,4.405331134796143,19208250
1.647210717201233,7.354987621307373,4.865017890930176,19208294
0.3447650372982025,7.086836814880371,6.3973069190979,19208340
0.7661445140838623,7.6997528076171875,5.784391403198242,19208387
1.37906014919281,8.312667846679688,6.129156112670898,19208430
2.298433542251587,7.393294811248779,4.213795185089111,19208473
1.2641384601593018,7.393294811248779,5.363011837005615,19208520
0.26815059781074524,7.891288757324219,7.393294811248779,19208567
1.1109095811843872,8.772355079650879,6.3973069190979,19208610
2.451662540435791,8.197746276855469,5.286397457122803,19208653
1.9536685943603516,6.627150535583496,4.022258758544922,19208700
-0.1149216815829277,6.090848922729492,5.439626216888428,19208747
-0.1149216815829277,6.780379295349121,6.167463779449463,19208790
1.4939818382263184,7.814674377441406,4.750096321105957,19208833
2.3367409706115723,8.465897560119629,5.2480902671813965,19208880
1.6089035272598267,7.469909191131592,6.167463779449463,19208926
0.9193734526634216,6.358999729156494,5.094861030578613,19208970
0.6512228846549988,5.975927352905273,4.63517427444458,19209012
0.6512228846549988,7.316680431365967,6.052541732788086,19209059
1.5322890281677246,8.389283180236816,7.2783732414245605,19209106
3.1028854846954346,7.469909191131592,4.903325080871582,19209149
2.3367409706115723,6.550535678863525,4.367023944854736,19209193
0.8044517636299133,6.550535678863525,6.282385349273682,19209235
1.3407529592514038,6.971915245056152,6.627150535583496,19209278
2.719813108444214,7.508216381072998,5.439626216888428,19209323
3.1028854846954346,7.508216381072998,4.711789131164551,19209368
1.8770540952682495,7.508216381072998,6.89530086517334,19209415
1.8770540952682495,6.856993675231934,6.129156112670898,19209458
1.3024457693099976,6.856993675231934,5.669469833374023,19209506
0.6129156351089478,7.163451671600342,6.627150535583496,19209552
0.6129156351089478,7.967903137207031,7.048529624938965,19209594
1.2258312702178955,7.738059997558594,6.665457725524902,19209637
0.9959878921508789,7.738059997558594,6.129156112670898,19209686
0.6512228846549988,7.738059997558594,7.7763671875,19209731
1.6089035272598267,7.1251444816589355,5.018246650695801,19209774
1.1875240802764893,6.742072105407715,3.7158010005950928,19209817
0.38307225704193115,6.742072105407715,5.822698593139648,19209860
0.8044517636299133,6.205770969390869,5.51624059677124,19209904
0.8044517636299133,6.588842868804932,5.51624059677124,19209946
1.072602391242981,6.89530086517334,5.51624059677124,19209989
1.9153614044189453,7.4316020011901855,4.788403511047363,19210032
1.6855180263519287,6.933608055114746,6.703764915466309,19210079
1.8770540952682495,5.861005783081055,5.669469833374023,19210123
0.7661445140838623,5.2480902671813965,6.435614109039307,19210168
0.38307225704193115,5.669469833374023,7.316680431365967,19210211
1.0342950820922852,6.129156112670898,5.439626216888428,19210255
0.8044517636299133,6.742072105407715,6.01423454284668,19210297
0.38307225704193115,7.048529624938965,7.738059997558594,19210341
0.9576807022094727,7.048529624938965,6.703764915466309,19210385
1.3407529592514038,6.703764915466309,6.090848922729492,19210431
0.9576807022094727,6.090848922729492,6.090848922729492,19210473
0.6512228846549988,6.090848922729492,6.282385349273682,19210516
0.6512228846549988,6.856993675231934,7.086836814880371,19210563
1.4173674583435059,7.048529624938965,6.435614109039307,19210606
1.4173674583435059,6.550535678863525,5.669469833374023,19210653
0.26815059781074524,6.550535678863525,7.2783732414245605,19210696
0.49799394607543945,6.550535678863525,6.435614109039307,19210745
0.9959878921508789,6.856993675231934,6.205770969390869,19210790
0.9959878921508789,6.856993675231934,6.435614109039307,19210833
0.9959878921508789,6.358999729156494,6.435614109039307,19210876
0.5363011956214905,6.01423454284668,7.2783732414245605,19210925
0.5363011956214905,5.822698593139648,7.2783732414245605,19210970
0.5363011956214905,5.822698593139648,6.435614109039307,19211012
0.07661445438861847,6.282385349273682,6.435614109039307,19211055
0.07661445438861847,6.89530086517334,6.435614109039307,19211104
0.07661445438861847,6.89530086517334,6.090848922729492,19211149
-0.38307225704193115,6.550535678863525,6.435614109039307,19211192
-0.38307225704193115,5.899312973022461,5.937620162963867,19211235
-0.38307225704193115,5.439626216888428,6.933608055114746,19211284
-0.9193734526634216,4.8267107009887695,7.240066051483154,19211329
-0.9193734526634216,5.056553840637207,6.473921298980713,19211372
-0.5746083855628967,5.861005783081055,7.393294811248779,19211415
0.3447650372982025,6.627150535583496,6.818686485290527,19211464
0.689530074596405,6.205770969390869,6.818686485290527,19211508
-0.07661445438861847,5.5545477867126465,6.818686485290527,19211551
-0.5746083855628967,5.286397457122803,7.201758861541748,19211596
-0.19153612852096558,5.286397457122803,6.435614109039307,19211643
-0.19153612852096558,5.286397457122803,7.163451671600342,19211688
-0.6129156351089478,4.865017890930176,6.703764915466309,19211731
-0.4213795065879822,4.865017890930176,6.703764915466309,19211775
-0.4213795065879822,4.481945514678955,6.3973069190979,19211817
-0.15322890877723694,5.018246650695801,7.623138427734375,19211860
-0.15322890877723694,5.20978307723999,8.695740699768066,19211903
0.2298433631658554,5.20978307723999,8.121131896972656,19211946
0.2298433631658554,5.20978307723999,8.121131896972656,19211989
-0.038307227194309235,5.784391403198242,9.232041358947754,19212036
-0.038307227194309235,6.01423454284668,7.891288757324219,19212079
-0.038307227194309235,6.01423454284668,7.6997528076171875,19212126
-0.3447650372982025,5.631162166595459,8.08282470703125,19212169
-0.3447650372982025,5.056553840637207,7.8529815673828125,19212211
-0.3447650372982025,5.056553840637207,6.818686485290527,19212254
-0.3447650372982025,5.056553840637207,6.818686485290527,19212297
0.3064578175544739,4.596867084503174,6.129156112670898,19212340
0.49799394607543945,4.290409564971924,5.784391403198242,19212387
-0.07661445438861847,4.060565948486328,7.201758861541748,19212430
-0.38307225704193115,4.290409564971924,7.4316020011901855,19212475
-0.38307225704193115,4.290409564971924,8.159439086914063,19212517
0.2298433631658554,5.056553840637207,7.6997528076171875,19212559
0.038307227194309235,6.167463779449463,8.312667846679688,19212605
0.038307227194309235,5.937620162963867,7.086836814880371,19212649
-0.3447650372982025,5.4013190269470215,8.159439086914063,19212695
-0.6512228846549988,5.171475887298584,8.925583839416504,19212739
-0.2298433631658554,5.171475887298584,7.738059997558594,19212784
-0.49799394607543945,5.5545477867126465,7.393294811248779,19212829
-0.26815059781074524,5.861005783081055,8.389283180236816,19212872
0.49799394607543945,5.51624059677124,7.661445617675781,19212915
0.8044517636299133,4.865017890930176,6.818686485290527,19212958
0.038307227194309235,4.865017890930176,7.623138427734375,19213001
0.038307227194309235,5.2480902671813965,8.274360656738281,19213045
0.6512228846549988,5.2480902671813965,6.665457725524902,19213091
0.6512228846549988,5.018246650695801,6.090848922729492,19213133
-0.038307227194309235,4.788403511047363,7.546523571014404,19213176
-0.38307225704193115,4.558559894561768,7.1251444816589355,19213219
-0.1149216815829277,5.094861030578613,7.8529815673828125,19213265
0.6129156351089478,5.094861030578613,7.048529624938965,19213309
0.6129156351089478,4.8267107009887695,6.205770969390869,19213353
-0.07661445438861847,5.286397457122803,8.312667846679688,19213395
0.19153612852096558,5.286397457122803,8.580819129943848,19213438
1.0342950820922852,4.941632270812988,5.439626216888428,19213485
0.4596867263317108,4.941632270812988,7.086836814880371,19213528
-0.26815059781074524,4.941632270812988,8.887276649475098,19213571
0.2298433631658554,4.941632270812988,7.738059997558594,19213614
0.5746083855628967,4.941632270812988,6.3973069190979,19213657
0.26815059781074524,5.286397457122803,7.469909191131592,19213700
0.26815059781074524,5.286397457122803,7.469909191131592,19213745
0.26815059781074524,4.750096321105957,6.971915245056152,19213790
0.26815059781074524,4.750096321105957,6.665457725524902,19213833
0.07661445438861847,5.4013190269470215,8.427590370178223,19213880
0.5363011956214905,4.8267107009887695,6.89530086517334,19213924
0.5363011956214905,4.8267107009887695,6.473921298980713,19213969
0.07661445438861847,5.018246650695801,8.465897560119629,19214012
0.07661445438861847,5.631162166595459,8.772355079650879,19214059
1.3024457693099976,5.094861030578613,6.627150535583496,19214108
0.4596867263317108,5.592854976654053,7.508216381072998,19214161
0.4596867263317108,5.592854976654053,10.917559623718262,19214205
1.1875240802764893,4.941632270812988,6.435614109039307,19214248
0.6512228846549988,5.1331682205200195,6.971915245056152,19214289
-0.1149216815829277,5.822698593139648,9.653421401977539,19214333
0.9959878921508789,5.1331682205200195,6.3973069190979,19214376
0.9959878921508789,4.750096321105957,5.899312973022461,19214419
0.038307227194309235,4.405331134796143,8.465897560119629,19214465
0.5363011956214905,4.63517427444458,7.6997528076171875,19214508
1.455674648284912,4.63517427444458,6.167463779449463,19214551
0.9576807022094727,4.63517427444458,7.010222434997559,19214598
0.4213795065879822,4.63517427444458,7.469909191131592,19214645
0.4213795065879822,4.405331134796143,7.048529624938965,19214688
0.4213795065879822,4.711789131164551,7.7763671875,19214731
0.689530074596405,5.018246650695801,7.7763671875,19214778
0.8810662031173706,4.750096321105957,6.971915245056152,19214825
0.8810662031173706,4.750096321105957,7.508216381072998,19214868
0.8810662031173706,4.750096321105957,7.010222434997559,19214911
0.6512228846549988,5.20978307723999,8.006210327148438,19214958
0.6512228846549988,5.20978307723999,8.312667846679688,19215001
0.8427590131759644,4.9799394607543945,7.891288757324219,19215048
0.4596867263317108,4.9799394607543945,8.121131896972656,19215090
0.4596867263317108,5.4013190269470215,8.580819129943848,19215137
0.4596867263317108,5.861005783081055,7.967903137207031,19215180
0.4596867263317108,5.861005783081055,7.393294811248779,19215225
0.4596867263317108,4.941632270812988,7.5848307609558105,19215270
0.15322890877723694,4.63517427444458,8.044517517089844,19215317
0.5363011956214905,5.171475887298584,7.814674377441406,19215360
1.072602391242981,5.171475887298584,7.240066051483154,19215405
1.072602391242981,5.171475887298584,6.358999729156494,19215451
0.6512228846549988,4.520252704620361,6.588842868804932,19215497
0.3447650372982025,4.252102375030518,7.201758861541748,19215540
0.3447650372982025,4.558559894561768,8.427590370178223,19215585
1.1109095811843872,4.290409564971924,6.01423454284668,19215631
0.727837324142456,5.056553840637207,7.048529624938965,19215673
0.19153612852096558,5.4013190269470215,9.53849983215332,19215715
1.3407529592514038,4.711789131164551,5.669469833374023,19215764
0.9193734526634216,4.443638324737549,6.358999729156494,19215809
0.038307227194309235,5.018246650695801,9.193734169006348,19215852
0.8427590131759644,5.2480902671813965,8.65743350982666,19215895
1.6089035272598267,5.51624059677124,7.1251444816589355,19215944
1.6089035272598267,6.052541732788086,8.619126319885254,19215989
0.49799394607543945,5.171475887298584,7.661445617675781,19216032
0.07661445438861847,4.63517427444458,7.661445617675781,19216075
0.07661445438861847,4.8267107009887695,7.469909191131592,19216124
0.689530074596405,5.631162166595459,8.389283180236816,19216169
1.1492167711257935,5.20978307723999,7.354987621307373,19216211
1.1492167711257935,4.711789131164551,6.856993675231934,19216254
0.689530074596405,4.711789131164551,7.661445617675781,19216297
0.689530074596405,5.171475887298584,8.35097599029541,19216340
1.1109095811843872,4.903325080871582,6.933608055114746,19216383
1.1109095811843872,4.903325080871582,7.201758861541748,19216427
0.38307225704193115,4.903325080871582,7.201758861541748,19216469
0.19153612852096558,4.903325080871582,7.508216381072998,19216516
0.38307225704193115,4.558559894561768,7.201758861541748,19216559
0.689530074596405,4.8267107009887695,7.623138427734375,19216606
0.9576807022094727,5.056553840637207,7.623138427734375,19216649
0.9576807022094727,5.056553840637207,7.623138427734375,19216696
0.9576807022094727,5.286397457122803,8.274360656738281,19216739
0.9576807022094727,5.286397457122803,8.274360656738281,19216786
1.1492167711257935,5.286397457122803,7.1251444816589355,19216829
0.49799394607543945,5.056553840637207,7.661445617675781,19216876
0.49799394607543945,4.6734819412231445,7.240066051483154,19216919
0.49799394607543945,4.6734819412231445,7.469909191131592,19216966
0.689530074596405,4.6734819412231445,7.048529624938965,19217008
0.689530074596405,4.6734819412231445,7.316680431365967,19217055
0.689530074596405,4.6734819412231445,7.546523571014404,19217098
0.689530074596405,4.6734819412231445,7.546523571014404,19217145
0.689530074596405,5.1331682205200195,8.236053466796875,19217190
0.9576807022094727,4.596867084503174,6.473921298980713,19217235
0.4596867263317108,4.596867084503174,7.354987621307373,19217278
0.26815059781074524,4.596867084503174,8.96389102935791,19217323
1.072602391242981,4.903325080871582,7.201758861541748,19217370
0.8810662031173706,5.1331682205200195,8.159439086914063,19217415
0.8810662031173706,5.1331682205200195,7.6997528076171875,19217458
0.5363011956214905,5.1331682205200195,8.35097599029541,19217501
0.5363011956214905,4.596867084503174,7.508216381072998,19217545
0.3064578175544739,4.8267107009887695,8.580819129943848,19217591
0.5746083855628967,4.8267107009887695,7.661445617675781,19217633
0.5746083855628967,5.20978307723999,8.159439086914063,19217676
0.5746083855628967,4.9799394607543945,7.7763671875,19217719
0.8044517636299133,4.63517427444458,7.086836814880371,19217762
0.8044517636299133,4.63517427444458,7.2783732414245605,19217806
0.8044517636299133,4.63517427444458,7.2783732414245605,19217848
0.8044517636299133,4.8267107009887695,7.814674377441406,19217891
0.8044517636299133,4.405331134796143,6.627150535583496,19217934
0.8044517636299133,4.022258758544922,6.627150535583496,19217977
0.3447650372982025,4.022258758544922,7.6997528076171875,19218020
0.5363011956214905,4.750096321105957,9.078812599182129,19218065
1.3407529592514038,5.324704647064209,8.65743350982666,19218110
1.647210717201233,5.1331682205200195,7.086836814880371,19218153
0.9959878921508789,5.1331682205200195,7.508216381072998,19218200
0.19153612852096558,4.941632270812988,8.65743350982666,19218244
0.4596867263317108,5.171475887298584,8.35097599029541,19218285
0.9193734526634216,4.9799394607543945,6.933608055114746,19218329
0.727837324142456,4.9799394607543945,7.4316020011901855,19218372
0.2298433631658554,4.596867084503174,7.240066051483154,19218419
0.689530074596405,4.405331134796143,7.661445617675781,19218465
1.1875240802764893,4.405331134796143,7.201758861541748,19218508
1.1875240802764893,4.63517427444458,7.201758861541748,19218551
1.1875240802764893,5.094861030578613,8.427590370178223,19218598
0.9959878921508789,4.481945514678955,6.971915245056152,19218645
0.49799394607543945,4.941632270812988,7.508216381072998,19218688
0.49799394607543945,5.20978307723999,9.002198219299316,19218731
0.8427590131759644,5.20978307723999,7.661445617675781,19218778
0.38307225704193115,4.941632270812988,7.661445617675781,19218824
0.38307225704193115,5.2480902671813965,8.542511940002441,19218868
0.8427590131759644,5.2480902671813965,7.5848307609558105,19218911
0.8427590131759644,5.2480902671813965,7.891288757324219,19218957
0.8427590131759644,4.865017890930176,7.469909191131592,19219000
0.8427590131759644,4.865017890930176,7.048529624938965,19219044
0.8427590131759644,4.63517427444458,7.240066051483154,19219086
0.8427590131759644,4.63517427444458,7.623138427734375,19219129
0.8427590131759644,4.63517427444458,7.623138427734375,19219172
0.8427590131759644,4.63517427444458,7.623138427734375,19219216
1.0342950820922852,4.213795185089111,6.780379295349121,19219259
1.0342950820922852,5.018246650695801,8.580819129943848,19219303
1.37906014919281,5.4013190269470215,8.274360656738281,19219348
1.800439715385437,4.9799394607543945,7.048529624938965,19219391
1.1492167711257935,4.9799394607543945,7.5848307609558105,19219434
0.6512228846549988,4.9799394607543945,8.465897560119629,19219477
0.8810662031173706,5.20978307723999,7.891288757324219,19219520
0.8810662031173706,5.20978307723999,7.623138427734375,19219565
0.5363011956214905,5.20978307723999,7.393294811248779,19219610
0.2298433631658554,4.596867084503174,6.358999729156494,19219653
-0.07661445438861847,4.175487995147705,6.358999729156494,19219696
0.6512228846549988,5.286397457122803,7.048529624938965,19199766
0.07661445438861847,5.286397457122803,8.08282470703125,19199813
0.5746083855628967,4.788403511047363,6.89530086517334,19199856
0.5746083855628967,5.324704647064209,6.89530086517334,19199899
0.5746083855628967,5.324704647064209,8.236053466796875,19199943
0.5746083855628967,4.8267107009887695,6.282385349273682,19199994
0.26815059781074524,5.51624059677124,8.312667846679688,19200035
0.49799394607543945,5.51624059677124,7.967903137207031,19200083
1.0342950820922852,5.51624059677124,6.742072105407715,19200126
0.4596867263317108,5.1331682205200195,6.320692539215088,19200169
-0.1149216815829277,5.51624059677124,8.65743350982666,19200216
0.49799394607543945,5.171475887298584,7.163451671600342,19200258
0.689530074596405,5.171475887298584,6.780379295349121,19200303
0.3447650372982025,5.861005783081055,8.197746276855469,19200348
0.7661445140838623,5.363011837005615,7.546523571014404,19200391
0.7661445140838623,5.171475887298584,6.205770969390869,19200434
0.19153612852096558,5.363011837005615,7.738059997558594,19200477
0.19153612852096558,5.363011837005615,7.738059997558594,19200520
0.727837324142456,5.094861030578613,6.3973069190979,19200565
0.4596867263317108,5.363011837005615,6.780379295349121,19200610
0.15322890877723694,5.363011837005615,8.35097599029541,19200653
0.727837324142456,5.363011837005615,6.89530086517334,19200700
0.727837324142456,5.363011837005615,7.508216381072998,19200745
0.4596867263317108,5.056553840637207,6.89530086517334,19200790
0.19153612852096558,5.324704647064209,7.738059997558594,19200833
0.5746083855628967,5.324704647064209,7.738059997558594,19200880
1.1492167711257935,5.324704647064209,6.703764915466309,19200924
0.49799394607543945,5.51624059677124,6.89530086517334,19200970
0.15322890877723694,5.324704647064209,8.121131896972656,19201012
0.5746083855628967,5.018246650695801,6.3973069190979,19201055
0.3447650372982025,5.286397457122803,7.469909191131592,19201098
0.6512228846549988,5.70777702331543,7.469909191131592,19201145
0.9193734526634216,5.094861030578613,6.818686485290527,19201188
0.4596867263317108,4.8267107009887695,6.3973069190979,19201231
-0.07661445438861847,5.286397457122803,8.810662269592285,19201274
0.9193734526634216,5.477933406829834,7.048529624938965,19201317
0.5363011956214905,5.70777702331543,6.856993675231934,19201366
-0.1149216815829277,5.056553840637207,7.393294811248779,19201411
0.15322890877723694,4.8267107009887695,6.856993675231934,19201454
0.6512228846549988,5.363011837005615,7.738059997558594,19201497
0.9193734526634216,5.70777702331543,7.738059997558594,19201546
0.4213795065879822,5.324704647064209,6.971915245056152,19201591
0.038307227194309235,5.324704647064209,7.469909191131592,19201633
0.3064578175544739,5.324704647064209,7.240066051483154,19201676
0.49799394607543945,5.324704647064209,6.933608055114746,19201726
0.26815059781074524,5.324704647064209,7.163451671600342,19201771
0.49799394607543945,5.746084213256836,8.389283180236816,19201813
1.1109095811843872,5.171475887298584,6.703764915466309,19201856
0.6512228846549988,5.592854976654053,7.048529624938965,19201903
0.2298433631658554,5.20978307723999,8.121131896972656,19201946
0.5363011956214905,5.4013190269470215,6.703764915466309,19201993
0.1149216815829277,5.4013190269470215,7.929595947265625,19202037
0.38307225704193115,5.4013190269470215,7.393294811248779,19202078
0.8044517636299133,4.941632270812988,6.3973069190979,19202122
0.5746083855628967,5.171475887298584,6.818686485290527,19202167
0.5746083855628967,5.51624059677124,8.312667846679688,19202211
0.8810662031173706,5.51624059677124,6.818686485290527,19202255
0.6129156351089478,5.51624059677124,7.048529624938965,19202298
0.3064578175544739,5.51624059677124,7.5848307609558105,19202344
0.3064578175544739,5.1331682205200195,6.435614109039307,19202387
0.5363011956214905,5.1331682205200195,7.316680431365967,19202430
0.5363011956214905,5.4013190269470215,7.7763671875,19202477
1.0342950820922852,5.4013190269470215,6.703764915466309,19202524
0.689530074596405,5.70777702331543,7.4316020011901855,19202567
0.689530074596405,5.363011837005615,7.4316020011901855,19202610
0.3064578175544739,5.171475887298584,7.086836814880371,19202657
0.3064578175544739,5.171475887298584,7.086836814880371,19202700
0.5746083855628967,5.51624059677124,7.508216381072998,19202747
0.8044517636299133,5.746084213256836,7.240066051483154,19202790
0.4213795065879822,5.439626216888428,7.240066051483154,19202837
0.4213795065879822,5.056553840637207,6.703764915466309,19202880
-0.2298433631658554,5.4013190269470215,7.1251444816589355,19202926
-0.2298433631658554,5.4013190269470215,7.508216381072998,19202969
0.4596867263317108,5.4013190269470215,6.818686485290527,19203012
0.8044517636299133,5.4013190269470215,7.5848307609558105,19203055
0.8044517636299133,5.669469833374023,8.236053466796875,19203098
0.8044517636299133,5.439626216888428,7.316680431365967,19203143
0.8044517636299133,5.094861030578613,6.627150535583496,19203188
0.8044517636299133,5.592854976654053,7.7763671875,19203231
0.3447650372982025,5.861005783081055,8.389283180236816,19203274
1.3024457693099976,5.51624059677124,5.669469833374023,19203323
0.6512228846549988,5.20978307723999,7.163451671600342,19203368
0.2298433631658554,5.439626216888428,7.546523571014404,19203411
0.689530074596405,5.094861030578613,7.354987621307373,19203454
0.9576807022094727,5.094861030578613,5.669469833374023,19203501
0.15322890877723694,5.5545477867126465,8.848969459533691,19203547
0.9193734526634216,5.363011837005615,7.4316020011901855,19203590
1.1492167711257935,5.094861030578613,6.282385349273682,19203633
0.26815059781074524,5.094861030578613,6.780379295349121,19203677
-0.3447650372982025,5.4013190269470215,8.197746276855469,19203719
0.5746083855628967,5.4013190269470215,7.393294811248779,19203764
1.0342950820922852,5.70777702331543,6.742072105407715,19203809
0.689530074596405,5.70777702331543,8.312667846679688,19203853
0.689530074596405,5.056553840637207,6.358999729156494,19203899
0.1149216815829277,5.363011837005615,8.121131896972656,19203946
0.1149216815829277,5.363011837005615,7.354987621307373,19203989
0.3447650372982025,5.363011837005615,6.742072105407715,19204040
0.15322890877723694,5.363011837005615,7.354987621307373,19204086
0.727837324142456,5.171475887298584,7.354987621307373,19204129
0.727837324142456,5.171475887298584,7.048529624938965,19204172
0.38307225704193115,5.4013190269470215,7.814674377441406,19204215
0.6512228846549988,5.4013190269470215,6.971915245056152,19204262
0.6512228846549988,5.4013190269470215,6.971915245056152,19204305
0.4213795065879822,5.056553840637207,7.2783732414245605,19204350
0.6512228846549988,5.2480902671813965,7.967903137207031,19204395
0.6512228846549988,5.2480902671813965,7.2783732414245605,19204438
0.6512228846549988,5.2480902671813965,7.2783732414245605,19204485
0.19153612852096558,5.2480902671813965,7.2783732414245605,19204530
0.4213795065879822,5.2480902671813965,7.048529624938965,19204575
0.689530074596405,5.2480902671813965,7.048529624938965,19204618
0.8810662031173706,5.5545477867126465,7.7763671875,19204661
0.8810662031173706,5.056553840637207,6.205770969390869,19204708
0.07661445438861847,5.477933406829834,8.35097599029541,19204750
0.07661445438861847,5.1331682205200195,7.316680431365967,19204793
0.49799394607543945,5.5545477867126465,7.316680431365967,19204836
0.49799394607543945,5.324704647064209,7.316680431365967,19204879
0.49799394607543945,5.018246650695801,6.703764915466309,19204925
0.15322890877723694,5.20978307723999,7.814674377441406,19204969
0.8044517636299133,5.20978307723999,7.010222434997559,19205012
1.072602391242981,5.784391403198242,7.010222434997559,19205055
0.5363011956214905,5.784391403198242,7.891288757324219,19205098
0.3447650372982025,5.477933406829834,7.891288757324219,19205143
0.3447650372982025,4.788403511047363,6.282385349273682,19205188
0.1149216815829277,5.477933406829834,7.967903137207031,19205231
0.5746083855628967,5.018246650695801,6.473921298980713,19205274
0.3447650372982025,5.018246650695801,6.856993675231934,19205317
0.1149216815829277,5.70777702331543,9.117119789123535,19205366
1.6089035272598267,5.70777702331543,7.469909191131592,19205411
1.6089035272598267,5.324704647064209,5.056553840637207,19205454
-0.38307225704193115,5.669469833374023,8.619126319885254,19205497
-0.38307225704193115,4.903325080871582,7.814674377441406,19205546
0.4213795065879822,5.324704647064209,6.512228488922119,19205591
0.4213795065879822,6.167463779449463,8.044517517089844,19205633
0.8427590131759644,5.51624059677124,7.010222434997559,19205676
0.4596867263317108,4.558559894561768,6.01423454284668,19205726
-0.38307225704193115,5.477933406829834,9.500192642211914,19205771
1.1109095811843872,5.784391403198242,8.159439086914063,19205813
1.7621324062347412,5.2480902671813965,4.558559894561768,19205856
0.2298433631658554,5.2480902671813965,7.010222434997559,19205899
-0.4213795065879822,5.2480902671813965,9.730035781860352,19205944
1.1109095811843872,5.2480902671813965,6.244078159332275,19205989
1.3407529592514038,5.477933406829834,6.244078159332275,19206036
0.038307227194309235,5.937620162963867,8.810662269592285,19206079
0.038307227194309235,4.711789131164551,6.244078159332275,19206123
0.038307227194309235,4.9799394607543945,6.627150535583496,19206166
0.5363011956214905,5.20978307723999,7.929595947265625,19206207
1.2258312702178955,5.20978307723999,6.435614109039307,19206250
0.7661445140838623,5.20978307723999,7.661445617675781,19206294
0.4213795065879822,5.018246650695801,7.240066051483154,19206337
0.4213795065879822,5.669469833374023,7.891288757324219,19206380
0.727837324142456,5.4013190269470215,6.473921298980713,19206425
0.4596867263317108,5.4013190269470215,7.316680431365967,19206469
0.4596867263317108,4.941632270812988,7.048529624938965,19206512
0.4596867263317108,5.286397457122803,8.159439086914063,19206555
1.2258312702178955,5.286397457122803,7.393294811248779,19206598
1.455674648284912,5.937620162963867,7.048529624938965,19206642
0.9576807022094727,5.4013190269470215,6.358999729156494,19206685
0.15322890877723694,5.20978307723999,6.358999729156494,19206727
0.15322890877723694,6.320692539215088,7.7763671875,19206774
0.9959878921508789,6.703764915466309,6.205770969390869,19206817
1.37906014919281,6.435614109039307,5.171475887298584,19206860
1.1492167711257935,6.435614109039307,6.320692539215088,19206911
0.49799394607543945,6.205770969390869,7.2783732414245605,19206954
0.49799394607543945,6.01423454284668,6.320692539215088,19206997
0.8427590131759644,6.320692539215088,6.320692539215088,19207040
1.3407529592514038,6.052541732788086,6.320692539215088,19207087
1.3407529592514038,5.592854976654053,5.5545477867126465,19207131
0.15322890877723694,5.592854976654053,7.546523571014404,19207176
0.15322890877723694,6.167463779449463,7.814674377441406,19207219
0.6129156351089478,6.627150535583496,5.592854976654053,19207264
0.9576807022094727,7.4316020011901855,5.592854976654053,19207309
1.2258312702178955,7.010222434997559,6.205770969390869,19207356
0.6129156351089478,6.665457725524902,6.627150535583496,19207399
0.2298433631658554,6.052541732788086,7.1251444816589355,19207444
0.8427590131759644,6.282385349273682,7.5848307609558105,19207490
1.455674648284912,5.018246650695801,6.167463779449463,19207546
0.4596867263317108,4.63517427444458,6.167463779449463,19207590
-0.19153612852096558,4.8267107009887695,7.2783732414245605,19207633
0.38307225704193115,5.70777702331543,7.5848307609558105,19207676
1.2641384601593018,6.205770969390869,6.320692539215088,19207719
1.2641384601593018,7.201758861541748,5.975927352905273,19207766
1.2641384601593018,7.508216381072998,5.20978307723999,19207809
1.2641384601593018,8.006210327148438,5.20978307723999,19207856
1.2641384601593018,8.504204750061035,5.861005783081055,19207899
1.6089035272598267,9.078812599182129,6.090848922729492,19207946
2.030282974243164,8.772355079650879,5.784391403198242,19207989
1.5705963373184204,7.546523571014404,4.9799394607543945,19208036
0.6129156351089478,6.703764915466309,4.596867084503174,19208079
0.4213795065879822,6.703764915466309,4.941632270812988,19208121
0.4213795065879822,7.508216381072998,5.5545477867126465,19208165
0.7661445140838623,8.044517517089844,6.01423454284668,19208207
1.9153614044189453,7.661445617675781,4.405331134796143,19208250
1.647210717201233,7.354987621307373,4.865017890930176,19208294
0.3447650372982025,7.086836814880371,6.3973069190979,19208340
0.7661445140838623,7.6997528076171875,5.784391403198242,19208387
1.37906014919281,8.312667846679688,6.129156112670898,19208430
2.298433542251587,7.393294811248779,4.213795185089111,19208473
1.2641384601593018,7.393294811248779,5.363011837005615,19208520
0.26815059781074524,7.891288757324219,7.393294811248779,19208567
1.1109095811843872,8.772355079650879,6.3973069190979,19208610
2.451662540435791,8.197746276855469,5.286397457122803,19208653
1.9536685943603516,6.627150535583496,4.022258758544922,19208700
-0.1149216815829277,6.090848922729492,5.439626216888428,19208747
-0.1149216815829277,6.780379295349121,6.167463779449463,19208790
1.4939818382263184,7.814674377441406,4.750096321105957,19208833
2.3367409706115723,8.465897560119629,5.2480902671813965,19208880
1.6089035272598267,7.469909191131592,6.167463779449463,19208926
0.9193734526634216,6.358999729156494,5.094861030578613,19208970
0.6512228846549988,5.975927352905273,4.63517427444458,19209012
0.6512228846549988,7.316680431365967,6.052541732788086,19209059
1.5322890281677246,8.389283180236816,7.2783732414245605,19209106
3.1028854846954346,7.469909191131592,4.903325080871582,19209149
2.3367409706115723,6.550535678863525,4.367023944854736,19209193
0.8044517636299133,6.550535678863525,6.282385349273682,19209235
1.3407529592514038,6.971915245056152,6.627150535583496,19209278
2.719813108444214,7.508216381072998,5.439626216888428,19209323
3.1028854846954346,7.508216381072998,4.711789131164551,19209368
1.8770540952682495,7.508216381072998,6.89530086517334,19209415
1.8770540952682495,6.856993675231934,6.129156112670898,19209458
1.3024457693099976,6.856993675231934,5.669469833374023,19209506
0.6129156351089478,7.163451671600342,6.627150535583496,19209552
0.6129156351089478,7.967903137207031,7.048529624938965,19209594
1.2258312702178955,7.738059997558594,6.665457725524902,19209637
0.9959878921508789,7.738059997558594,6.129156112670898,19209686
0.6512228846549988,7.738059997558594,7.7763671875,19209731
1.6089035272598267,7.1251444816589355,5.018246650695801,19209774
1.1875240802764893,6.742072105407715,3.7158010005950928,19209817
0.38307225704193115,6.742072105407715,5.822698593139648,19209860
0.8044517636299133,6.205770969390869,5.51624059677124,19209904
0.8044517636299133,6.588842868804932,5.51624059677124,19209946
1.072602391242981,6.89530086517334,5.51624059677124,19209989
1.9153614044189453,7.4316020011901855,4.788403511047363,19210032
1.6855180263519287,6.933608055114746,6.703764915466309,19210079
1.8770540952682495,5.861005783081055,5.669469833374023,19210123
0.7661445140838623,5.2480902671813965,6.435614109039307,19210168
0.38307225704193115,5.669469833374023,7.316680431365967,19210211
1.0342950820922852,6.129156112670898,5.439626216888428,19210255
0.8044517636299133,6.742072105407715,6.01423454284668,19210297
0.38307225704193115,7.048529624938965,7.738059997558594,19210341
0.9576807022094727,7.048529624938965,6.703764915466309,19210385
1.3407529592514038,6.703764915466309,6.090848922729492,19210431
0.9576807022094727,6.090848922729492,6.090848922729492,19210473
0.6512228846549988,6.090848922729492,6.282385349273682,19210516
0.6512228846549988,6.856993675231934,7.086836814880371,19210563
1.4173674583435059,7.048529624938965,6.435614109039307,19210606
1.4173674583435059,6.550535678863525,5.669469833374023,19210653
0.26815059781074524,6.550535678863525,7.2783732414245605,19210696
0.49799394607543945,6.550535678863525,6.435614109039307,19210745
0.9959878921508789,6.856993675231934,6.205770969390869,19210790
0.9959878921508789,6.856993675231934,6.435614109039307,19210833
0.9959878921508789,6.358999729156494,6.435614109039307,19210876
0.5363011956214905,6.01423454284668,7.2783732414245605,19210925
0.5363011956214905,5.822698593139648,7.2783732414245605,19210970
0.5363011956214905,5.822698593139648,6.435614109039307,19211012
0.07661445438861847,6.282385349273682,6.435614109039307,19211055
0.07661445438861847,6.89530086517334,6.435614109039307,19211104
0.07661445438861847,6.89530086517334,6.090848922729492,19211149
-0.38307225704193115,6.550535678863525,6.435614109039307,19211192
-0.38307225704193115,5.899312973022461,5.937620162963867,19211235
-0.38307225704193115,5.439626216888428,6.933608055114746,19211284
-0.9193734526634216,4.8267107009887695,7.240066051483154,19211329
-0.9193734526634216,5.056553840637207,6.473921298980713,19211372
-0.5746083855628967,5.861005783081055,7.393294811248779,19211415
0.3447650372982025,6.627150535583496,6.818686485290527,19211464
0.689530074596405,6.205770969390869,6.818686485290527,19211508
-0.07661445438861847,5.5545477867126465,6.818686485290527,19211551
-0.5746083855628967,5.286397457122803,7.201758861541748,19211596
-0.19153612852096558,5.286397457122803,6.435614109039307,19211643
-0.19153612852096558,5.286397457122803,7.163451671600342,19211688
-0.6129156351089478,4.865017890930176,6.703764915466309,19211731
-0.4213795065879822,4.865017890930176,6.703764915466309,19211775
-0.4213795065879822,4.481945514678955,6.3973069190979,19211817
-0.15322890877723694,5.018246650695801,7.623138427734375,19211860
-0.15322890877723694,5.20978307723999,8.695740699768066,19211903
0.2298433631658554,5.20978307723999,8.121131896972656,19211946
0.2298433631658554,5.20978307723999,8.121131896972656,19211989
-0.038307227194309235,5.784391403198242,9.232041358947754,19212036
-0.038307227194309235,6.01423454284668,7.891288757324219,19212079
-0.038307227194309235,6.01423454284668,7.6997528076171875,19212126
-0.3447650372982025,5.631162166595459,8.08282470703125,19212169
-0.3447650372982025,5.056553840637207,7.8529815673828125,19212211
-0.3447650372982025,5.056553840637207,6.818686485290527,19212254
-0.3447650372982025,5.056553840637207,6.818686485290527,19212297
0.3064578175544739,4.596867084503174,6.129156112670898,19212340
0.49799394607543945,4.290409564971924,5.784391403198242,19212387
-0.07661445438861847,4.060565948486328,7.201758861541748,19212430
-0.38307225704193115,4.290409564971924,7.4316020011901855,19212475
-0.38307225704193115,4.290409564971924,8.159439086914063,19212517
0.2298433631658554,5.056553840637207,7.6997528076171875,19212559
0.038307227194309235,6.167463779449463,8.312667846679688,19212605
0.038307227194309235,5.937620162963867,7.086836814880371,19212649
-0.3447650372982025,5.4013190269470215,8.159439086914063,19212695
-0.6512228846549988,5.171475887298584,8.925583839416504,19212739
-0.2298433631658554,5.171475887298584,7.738059997558594,19212784
-0.49799394607543945,5.5545477867126465,7.393294811248779,19212829
-0.26815059781074524,5.861005783081055,8.389283180236816,19212872
0.49799394607543945,5.51624059677124,7.661445617675781,19212915
0.8044517636299133,4.865017890930176,6.818686485290527,19212958
0.038307227194309235,4.865017890930176,7.623138427734375,19213001
0.038307227194309235,5.2480902671813965,8.274360656738281,19213045
0.6512228846549988,5.2480902671813965,6.665457725524902,19213091
0.6512228846549988,5.018246650695801,6.090848922729492,19213133
-0.038307227194309235,4.788403511047363,7.546523571014404,19213176
-0.38307225704193115,4.558559894561768,7.1251444816589355,19213219
-0.1149216815829277,5.094861030578613,7.8529815673828125,19213265
0.6129156351089478,5.094861030578613,7.048529624938965,19213309
0.6129156351089478,4.8267107009887695,6.205770969390869,19213353
-0.07661445438861847,5.286397457122803,8.312667846679688,19213395
0.19153612852096558,5.286397457122803,8.580819129943848,19213438
1.0342950820922852,4.941632270812988,5.439626216888428,19213485
0.4596867263317108,4.941632270812988,7.086836814880371,19213528
-0.26815059781074524,4.941632270812988,8.887276649475098,19213571
0.2298433631658554,4.941632270812988,7.738059997558594,19213614
0.5746083855628967,4.941632270812988,6.3973069190979,19213657
0.26815059781074524,5.286397457122803,7.469909191131592,19213700
0.26815059781074524,5.286397457122803,7.469909191131592,19213745
0.26815059781074524,4.750096321105957,6.971915245056152,19213790
0.26815059781074524,4.750096321105957,6.665457725524902,19213833
0.07661445438861847,5.4013190269470215,8.427590370178223,19213880
0.5363011956214905,4.8267107009887695,6.89530086517334,19213924
0.5363011956214905,4.8267107009887695,6.473921298980713,19213969
0.07661445438861847,5.018246650695801,8.465897560119629,19214012
0.07661445438861847,5.631162166595459,8.772355079650879,19214059
1.3024457693099976,5.094861030578613,6.627150535583496,19214108
0.4596867263317108,5.592854976654053,7.508216381072998,19214161
0.4596867263317108,5.592854976654053,10.917559623718262,19214205
1.1875240802764893,4.941632270812988,6.435614109039307,19214248
0.6512228846549988,5.1331682205200195,6.971915245056152,19214289
-0.1149216815829277,5.822698593139648,9.653421401977539,19214333
0.9959878921508789,5.1331682205200195,6.3973069190979,19214376
0.9959878921508789,4.750096321105957,5.899312973022461,19214419
0.038307227194309235,4.405331134796143,8.465897560119629,19214465
0.5363011956214905,4.63517427444458,7.6997528076171875,19214508
1.455674648284912,4.63517427444458,6.167463779449463,19214551
0.9576807022094727,4.63517427444458,7.010222434997559,19214598
0.4213795065879822,4.63517427444458,7.469909191131592,19214645
0.4213795065879822,4.405331134796143,7.048529624938965,19214688
0.4213795065879822,4.711789131164551,7.7763671875,19214731
0.689530074596405,5.018246650695801,7.7763671875,19214778
0.8810662031173706,4.750096321105957,6.971915245056152,19214825
0.8810662031173706,4.750096321105957,7.508216381072998,19214868
0.8810662031173706,4.750096321105957,7.010222434997559,19214911
0.6512228846549988,5.20978307723999,8.006210327148438,19214958
0.6512228846549988,5.20978307723999,8.312667846679688,19215001
0.8427590131759644,4.9799394607543945,7.891288757324219,19215048
0.4596867263317108,4.9799394607543945,8.121131896972656,19215090
0.4596867263317108,5.4013190269470215,8.580819129943848,19215137
0.4596867263317108,5.861005783081055,7.967903137207031,19215180
0.4596867263317108,5.861005783081055,7.393294811248779,19215225
0.4596867263317108,4.941632270812988,7.5848307609558105,19215270
0.15322890877723694,4.63517427444458,8.044517517089844,19215317
0.5363011956214905,5.171475887298584,7.814674377441406,19215360
1.072602391242981,5.171475887298584,7.240066051483154,19215405
1.072602391242981,5.171475887298584,6.358999729156494,19215451
0.6512228846549988,4.520252704620361,6.588842868804932,19215497
0.3447650372982025,4.252102375030518,7.201758861541748,19215540
0.3447650372982025,4.558559894561768,8.427590370178223,19215585
1.1109095811843872,4.290409564971924,6.01423454284668,19215631
0.727837324142456,5.056553840637207,7.048529624938965,19215673
0.19153612852096558,5.4013190269470215,9.53849983215332,19215715
1.3407529592514038,4.711789131164551,5.669469833374023,19215764
0.9193734526634216,4.443638324737549,6.358999729156494,19215809
0.038307227194309235,5.018246650695801,9.193734169006348,19215852
0.8427590131759644,5.2480902671813965,8.65743350982666,19215895
1.6089035272598267,5.51624059677124,7.1251444816589355,19215944
1.6089035272598267,6.052541732788086,8.619126319885254,19215989
0.49799394607543945,5.171475887298584,7.661445617675781,19216032
0.07661445438861847,4.63517427444458,7.661445617675781,19216075
0.07661445438861847,4.8267107009887695,7.469909191131592,19216124
0.689530074596405,5.631162166595459,8.389283180236816,19216169
1.1492167711257935,5.20978307723999,7.354987621307373,19216211
1.1492167711257935,4.711789131164551,6.856993675231934,19216254
0.689530074596405,4.711789131164551,7.661445617675781,19216297
0.689530074596405,5.171475887298584,8.35097599029541,19216340
1.1109095811843872,4.903325080871582,6.933608055114746,19216383
1.1109095811843872,4.903325080871582,7.201758861541748,19216427
0.38307225704193115,4.903325080871582,7.201758861541748,19216469
0.19153612852096558,4.903325080871582,7.508216381072998,19216516
0.38307225704193115,4.558559894561768,7.201758861541748,19216559
0.689530074596405,4.8267107009887695,7.623138427734375,19216606
0.9576807022094727,5.056553840637207,7.623138427734375,19216649
0.9576807022094727,5.056553840637207,7.623138427734375,19216696
0.9576807022094727,5.286397457122803,8.274360656738281,19216739
0.9576807022094727,5.286397457122803,8.274360656738281,19216786
1.1492167711257935,5.286397457122803,7.1251444816589355,19216829
0.49799394607543945,5.056553840637207,7.661445617675781,19216876
0.49799394607543945,4.6734819412231445,7.240066051483154,19216919
0.49799394607543945,4.6734819412231445,7.469909191131592,19216966
0.689530074596405,4.6734819412231445,7.048529624938965,19217008
0.689530074596405,4.6734819412231445,7.316680431365967,19217055
0.689530074596405,4.6734819412231445,7.546523571014404,19217098
0.689530074596405,4.6734819412231445,7.546523571014404,19217145
0.689530074596405,5.1331682205200195,8.236053466796875,19217190
0.9576807022094727,4.596867084503174,6.473921298980713,19217235
0.4596867263317108,4.596867084503174,7.354987621307373,19217278
0.26815059781074524,4.596867084503174,8.96389102935791,19217323
1.072602391242981,4.903325080871582,7.201758861541748,19217370
0.8810662031173706,5.1331682205200195,8.159439086914063,19217415
0.8810662031173706,5.1331682205200195,7.6997528076171875,19217458
0.5363011956214905,5.1331682205200195,8.35097599029541,19217501
0.5363011956214905,4.596867084503174,7.508216381072998,19217545
0.3064578175544739,4.8267107009887695,8.580819129943848,19217591
0.5746083855628967,4.8267107009887695,7.661445617675781,19217633
0.5746083855628967,5.20978307723999,8.159439086914063,19217676
0.5746083855628967,4.9799394607543945,7.7763671875,19217719
0.8044517636299133,4.63517427444458,7.086836814880371,19217762
0.8044517636299133,4.63517427444458,7.2783732414245605,19217806
0.8044517636299133,4.63517427444458,7.2783732414245605,19217848
0.8044517636299133,4.8267107009887695,7.814674377441406,19217891
0.8044517636299133,4.405331134796143,6.627150535583496,19217934
0.8044517636299133,4.022258758544922,6.627150535583496,19217977
0.3447650372982025,4.022258758544922,7.6997528076171875,19218020
0.5363011956214905,4.750096321105957,9.078812599182129,19218065
1.3407529592514038,5.324704647064209,8.65743350982666,19218110
1.647210717201233,5.1331682205200195,7.086836814880371,19218153
0.9959878921508789,5.1331682205200195,7.508216381072998,19218200
0.19153612852096558,4.941632270812988,8.65743350982666,19218244
0.4596867263317108,5.171475887298584,8.35097599029541,19218285
0.9193734526634216,4.9799394607543945,6.933608055114746,19218329
0.727837324142456,4.9799394607543945,7.4316020011901855,19218372
0.2298433631658554,4.596867084503174,7.240066051483154,19218419
0.689530074596405,4.405331134796143,7.661445617675781,19218465
1.1875240802764893,4.405331134796143,7.201758861541748,19218508
1.1875240802764893,4.63517427444458,7.201758861541748,19218551
1.1875240802764893,5.094861030578613,8.427590370178223,19218598
0.9959878921508789,4.481945514678955,6.971915245056152,19218645
0.49799394607543945,4.941632270812988,7.508216381072998,19218688
0.49799394607543945,5.20978307723999,9.002198219299316,19218731
0.8427590131759644,5.20978307723999,7.661445617675781,19218778
0.38307225704193115,4.941632270812988,7.661445617675781,19218824
0.38307225704193115,5.2480902671813965,8.542511940002441,19218868
0.8427590131759644,5.2480902671813965,7.5848307609558105,19218911
0.8427590131759644,5.2480902671813965,7.891288757324219,19218957
0.8427590131759644,4.865017890930176,7.469909191131592,19219000
0.8427590131759644,4.865017890930176,7.048529624938965,19219044
0.8427590131759644,4.63517427444458,7.240066051483154,19219086
0.8427590131759644,4.63517427444458,7.623138427734375,19219129
0.8427590131759644,4.63517427444458,7.623138427734375,19219172
0.8427590131759644,4.63517427444458,7.623138427734375,19219216
1.0342950820922852,4.213795185089111,6.780379295349121,19219259
1.0342950820922852,5.018246650695801,8.580819129943848,19219303
1.37906014919281,5.4013190269470215,8.274360656738281,19219348
1.800439715385437,4.9799394607543945,7.048529624938965,19219391
1.1492167711257935,4.9799394607543945,7.5848307609558105,19219434
0.6512228846549988,4.9799394607543945,8.465897560119629,19219477
0.8810662031173706,5.20978307723999,7.891288757324219,19219520
0.8810662031173706,5.20978307723999,7.623138427734375,19219565
0.5363011956214905,5.20978307723999,7.393294811248779,19219610
0.2298433631658554,4.596867084503174,6.358999729156494,19219653
-0.07661445438861847,4.175487995147705,6.358999729156494,19219696
-0.07661445438861847,4.9799394607543945,9.27034854888916,19219745
0.9576807022094727,4.750096321105957,7.508216381072998,19219790
1.3024457693099976,4.750096321105957,6.665457725524902,19219833
1.072602391242981,5.1331682205200195,7.5848307609558105,19219876
0.6512228846549988,5.1331682205200195,7.086836814880371,19219923
0.4213795065879822,5.477933406829834,8.619126319885254,19219969
0.4213795065879822,5.746084213256836,9.346963882446289,19220012
1.2258312702178955,5.477933406829834,7.2783732414245605,19220055
0.2298433631658554,4.558559894561768,5.592854976654053,19220098
-0.8044517636299133,5.324704647064209,8.580819129943848,19220141
-0.07661445438861847,5.018246650695801,7.393294811248779,19220185
0.5363011956214905,4.8267107009887695,6.588842868804932,19220227
0.5363011956214905,4.596867084503174,7.163451671600342,19220270
0.5363011956214905,4.405331134796143,7.546523571014404,19220313
0.3447650372982025,4.405331134796143,7.891288757324219,19220357
0.8427590131759644,4.711789131164551,7.546523571014404,19220399
1.3407529592514038,5.592854976654053,7.546523571014404,19220444
1.3407529592514038,5.20978307723999,6.971915245056152,19220489
0.7661445140838623,5.20978307723999,7.967903137207031,19220532
0.7661445140838623,4.9799394607543945,7.967903137207031,19220575
0.7661445140838623,4.9799394607543945,6.856993675231934,19220624
0.038307227194309235,5.324704647064209,8.044517517089844,19220669
0.038307227194309235,5.324704647064209,7.6997528076171875,19220712
0.4596867263317108,4.903325080871582,7.2783732414245605,19220755
0.26815059781074524,4.520252704620361,7.2783732414245605,19220804
0.26815059781074524,4.9799394607543945,8.389283180236816,19220848
0.727837324142456,4.9799394607543945,6.512228488922119,19220891
0.727837324142456,5.477933406829834,7.661445617675781,19220934
0.727837324142456,5.20978307723999,7.201758861541748,19220983
0.727837324142456,4.9799394607543945,7.623138427734375,19221028
0.727837324142456,4.481945514678955,7.086836814880371,19221071
0.727837324142456,4.8267107009887695,7.7763671875,19221114
0.727837324142456,5.1331682205200195,7.7763671875,19221161
0.727837324142456,5.1331682205200195,7.2783732414245605,19221208
0.4596867263317108,5.1331682205200195,7.2783732414245605,19221251
0.4596867263317108,4.750096321105957,7.010222434997559,19221294
0.4596867263317108,4.750096321105957,8.159439086914063,19221340
0.19153612852096558,4.750096321105957,8.159439086914063,19221387
0.49799394607543945,5.1331682205200195,7.623138427734375,19221430
0.2298433631658554,5.1331682205200195,7.891288757324219,19221473
0.2298433631658554,5.1331682205200195,7.5848307609558105,19221520
-0.15322890877723694,5.1331682205200195,8.427590370178223,19221567
-0.15322890877723694,5.1331682205200195,7.814674377441406,19221610
-0.15322890877723694,5.5545477867126465,8.734047889709473,19221653
0.15322890877723694,4.750096321105957,6.473921298980713,19221700
-0.3447650372982025,4.750096321105957,7.929595947265625,19221747
-0.3447650372982025,4.750096321105957,7.929595947265625,19221796
0.1149216815829277,5.094861030578613,7.4316020011901855,19221840
0.1149216815829277,5.094861030578613,7.201758861541748,19221883
0.1149216815829277,5.094861030578613,7.738059997558594,19221926
0.1149216815829277,4.63517427444458,7.393294811248779,19221971
0.1149216815829277,4.63517427444458,7.393294811248779,19222013
0.1149216815829277,4.63517427444458,7.393294811248779,19222055
0.1149216815829277,4.63517427444458,6.933608055114746,19222098
0.1149216815829277,4.63517427444458,7.508216381072998,19222141
0.1149216815829277,4.8267107009887695,7.929595947265625,19222184
0.1149216815829277,4.8267107009887695,7.929595947265625,19222227
0.5746083855628967,4.481945514678955,5.899312973022461,19222271
-0.3064578175544739,4.481945514678955,8.08282470703125,19222313
-0.5363011956214905,5.171475887298584,9.53849983215332,19222356
0.689530074596405,4.903325080871582,6.856993675231934,19222399
0.689530074596405,4.903325080871582,6.205770969390869,19222442
-0.15322890877723694,4.903325080871582,9.117119789123535,19222491
0.1149216815829277,4.903325080871582,7.661445617675781,19222536
0.5746083855628967,4.903325080871582,7.086836814880371,19222579
0.5746083855628967,4.596867084503174,5.4013190269470215,19222622
-0.38307225704193115,5.094861030578613,9.117119789123535,19222670
-0.38307225704193115,4.520252704620361,8.580819129943848,19222715
0.4213795065879822,4.520252704620361,7.354987621307373,19222758
0.4213795065879822,4.098873138427734,7.010222434997559,19222803
-0.38307225704193115,5.018246650695801,10.228029251098633,19222844
0.2298433631658554,5.2480902671813965,8.772355079650879,19222889
0.8427590131759644,5.51624059677124,6.971915245056152,19222934
0.5363011956214905,5.51624059677124,6.971915245056152,19222977
0.5363011956214905,5.018246650695801,7.469909191131592,19223020
0.5363011956214905,4.213795185089111,7.469909191131592,19223063
0.5363011956214905,4.213795185089111,7.8529815673828125,19223106
0.5363011956214905,4.865017890930176,8.389283180236816,19223152
0.5363011956214905,4.865017890930176,6.703764915466309,19223196
0.2298433631658554,4.32871675491333,6.703764915466309,19223239
-0.38307225704193115,4.32871675491333,8.389283180236816,19223282
-0.038307227194309235,4.596867084503174,8.08282470703125,19223325
0.5746083855628967,4.903325080871582,7.201758861541748,19223368
0.5746083855628967,4.903325080871582,7.393294811248779,19223415
0.1149216815829277,4.711789131164551,7.393294811248779,19223458
-0.19153612852096558,4.711789131164551,8.35097599029541,19223502
0.1149216815829277,4.711789131164551,7.661445617675781,19223547
0.3064578175544739,4.711789131164551,6.818686485290527,19223590
0.3064578175544739,4.711789131164551,7.929595947265625,19223635
0.3064578175544739,4.711789131164551,7.929595947265625,19223682
0.3064578175544739,4.711789131164551,7.738059997558594,19223723
0.689530074596405,5.094861030578613,8.236053466796875,19223766
