x ratio,y ratio,intensity,time,duration,classification
0.0,0.0,0,1368457927254,0,DRIVE_START
-0.12284033536133046,-1.9859696778816571,3,1368457930171,1664,STOP
-0.00779857070261892,-0.8258829275117392,2,1368457962825,1614,SPEED_BUMP
-0.009586556498271438,-0.8206954661980485,3,1368457967743,1662,STOP
-0.13592332275805005,-1.1917525804125302,3,1368457986039,1602,STOP
-0.0488496535155318,-1.5329543903519296,3,1368458307478,1678,STOP
-0.00737608671330451,-1.2818227496788501,3,1368458311276,1638,STOP
0.029345327946536912,-0.7109347635649921,2,1368458335507,1585,STOP
0.009384905328695783,-0.5859852783002043,3,1368458432305,1616,SPEED_BUMP
0.006531270619480562,-0.9664767213531786,3,1368458435621,1638,STOP
-0.013288984964551134,-0.8537939561383394,2,1368458482051,1821,SPEED_BUMP
-0.04027683991419086,-0.9541906930955025,2,1368458487019,1605,STOP
-0.042665159802362664,-1.0028068232775544,3,1368458490354,1603,STOP
0.018171264579041318,-0.8283630245856255,3,1368458505917,1667,STOP
-0.015778283740514716,-0.8772312510970289,3,1368458514067,1634,STOP
-0.04764317120184102,-0.8617093834313387,2,1368458519938,1640,STOP
-0.002565670389791872,-0.7360419761161511,2,1368458591079,1528,STOP
-0.006950396168472089,-0.9869468491424079,3,1368458596407,1518,SPEED_BUMP
-0.013466051406785988,-1.2315079119166463,3,1368458604383,1686,STOP
-0.024081740560123317,-1.3743736678790421,3,1368458610194,1700,STOP
-0.0,-1.3509106881441688,3,1368458619966,1662,STOP
-0.014185302609755732,-1.1540815694496729,3,1368458625066,1671,SPEED_BUMP
0.0,-0.99473695839017,3,1368458629202,1657,SPEED_BUMP
0.008917500567593805,-1.1143264349598565,3,1368458632446,1613,STOP
-0.005859922903529561,-0.406840650479574,2,1368458656383,1543,STOP
-0.005085356623469868,-1.0207362223712726,3,1368458676985,2784,SPEED_BUMP
-0.0,-1.0219450978504943,3,1368458680347,1615,STOP
-0.03269649317006536,-0.9950444604872712,3,1368458683346,2529,SPEED_BUMP
-0.0019814520029370923,-1.0060706831531039,3,1368458689358,1626,STOP
-0.0,-1.0540201413095394,3,1368458719166,1668,STOP
-0.060165047026944675,-1.5807417701117699,3,1368458724671,1644,STOP
0.0,-1.0133029033003798,3,1368458731100,1681,STOP
0.004984926271359827,-0.9897965139641659,3,1368458736953,1678,STOP
-0.03835083103553318,-1.447928891183922,3,1368458754697,1662,SPEED_BUMP
-0.007689179340048787,-1.5569227921305462,3,1368458758804,1639,STOP
0.0,0.0,0,1368458763293,0,DRIVE_END
